0000.000 (0) Opened log file at time: Tue, 14 Sep 2021 22:05:44 +0000 on https://news.usracing.com
0000.042 (0) UpdraftPlus WordPress backup plugin (https://updraftplus.com): 1.16.26 WP: 5.5 PHP: 5.6.40 (cgi-fcgi, Linux falcon.allhorse.com 3.10.0-1127.13.1.el7.x86_64 #1 SMP Tue Jun 23 15:46:38 UTC 2020 x86_64) MySQL: 10.3.8-MariaDB-log WPLANG: en_US Server: Apache safe_mode: 0 max_execution_time: 900 memory_limit: 512M (used: 82.1M | 83.3M) multisite: N openssl: OpenSSL 1.0.2u  20 Dec 2019 mcrypt: Y LANG:  ZipArchive::addFile: N
0000.129 (0) Free space on disk containing Updraft's temporary directory: 58330.1 MB
0000.165 (0) Deleting old log file: log.6f63d81a4f02.txt
0000.198 (0) Tasks: Backup files: 1 (schedule: manual) Backup DB: 1 (schedule: manual)
0000.263 (0) Requesting semaphore lock (fd) (apparently not via scheduler)
0000.332 (0) Set semaphore last lock (fd) time to 2021-09-14 22:05:44
0000.365 (0) Semaphore lock (fd) complete
0000.449 (0) Backup run: resumption=0, nonce=af9f22f3b0c1, file_nonce=af9f22f3b0c1 begun at=1631657144 (1s ago), job type=backup
0000.513 (0) Scheduling a resumption (1) after 300 seconds (1631657445) in case this run gets aborted
0000.586 (0) Checking if we have a zip executable available
0000.618 (0) Testing: /usr/bin/zip
0000.660 (0) Output: zip warning: binziptest/test.zip not found or empty
0000.693 (0) Output: adding: binziptest/subdir1/	(in=0) (out=0) (stored 0%)
0000.726 (0) Output: adding: binziptest/subdir1/subdir2/	(in=0) (out=0) (stored 0%)
0000.757 (0) Output: adding: binziptest/subdir1/subdir2/test.html	(in=131) (out=107) (deflated 18%)
0000.789 (0) Output: total bytes=131, compressed=107 -> 18% savings
0000.829 (0) Output: adding: binziptest/subdir1/subdir2/test2.html	(in=138) (out=113) (deflated 18%)
0000.863 (0) Output: total bytes=269, compressed=220 -> 18% savings
0000.902 (0) Working binary zip found: /usr/bin/zip
0000.968 (0) Zip engine: found/will use a binary zip: /usr/bin/zip
0001.001 (0) Creation of backups of directories: beginning
0001.098 (0) Beginning creation of dump of plugins (split every: 400 MB)
0001.385 (0) Total entities for the zip file: 1622 directories, 8681 files (0 skipped as non-modified), 136.8 MB
0001.461 (0) Zip: backup_2021-09-14-1805_Horse_Racing_News_af9f22f3b0c1-plugins.zip.tmp: 100 files added (on-disk size: 0 KB)
0001.503 (0) Zip: backup_2021-09-14-1805_Horse_Racing_News_af9f22f3b0c1-plugins.zip.tmp: 200 files added (on-disk size: 0 KB)
0001.544 (0) Zip: backup_2021-09-14-1805_Horse_Racing_News_af9f22f3b0c1-plugins.zip.tmp: 300 files added (on-disk size: 0 KB)
0001.585 (0) Zip: backup_2021-09-14-1805_Horse_Racing_News_af9f22f3b0c1-plugins.zip.tmp: 400 files added (on-disk size: 0 KB)
0001.628 (0) Zip: backup_2021-09-14-1805_Horse_Racing_News_af9f22f3b0c1-plugins.zip.tmp: 500 files added (on-disk size: 0 KB)
0001.661 (0) Adding batch to zip file (UpdraftPlus_BinZip): over 500 files added on this batch (4.9 MB, 8681 files batched, 501 (501) added so far); re-opening (prior size: 0 KB)
0001.990 (0) backup_2021-09-14-1805_Horse_Racing_News_af9f22f3b0c1-plugins.zip.tmp: size is now: 2.70 MB
0002.065 (0) Zip: backup_2021-09-14-1805_Horse_Racing_News_af9f22f3b0c1-plugins.zip.tmp: 600 files added (on-disk size: 2751.2 KB)
0002.107 (0) Zip: backup_2021-09-14-1805_Horse_Racing_News_af9f22f3b0c1-plugins.zip.tmp: 700 files added (on-disk size: 2751.2 KB)
0002.149 (0) Zip: backup_2021-09-14-1805_Horse_Racing_News_af9f22f3b0c1-plugins.zip.tmp: 800 files added (on-disk size: 2751.2 KB)
0002.191 (0) Zip: backup_2021-09-14-1805_Horse_Racing_News_af9f22f3b0c1-plugins.zip.tmp: 900 files added (on-disk size: 2751.2 KB)
0002.233 (0) Zip: backup_2021-09-14-1805_Horse_Racing_News_af9f22f3b0c1-plugins.zip.tmp: 1000 files added (on-disk size: 2751.2 KB)
0002.270 (0) Adding batch to zip file (UpdraftPlus_BinZip): over 500 files added on this batch (11 MB, 8681 files batched, 501 (1002) added so far); re-opening (prior size: 2751.2 KB)
0002.679 (0) backup_2021-09-14-1805_Horse_Racing_News_af9f22f3b0c1-plugins.zip.tmp: size is now: 6.60 MB
0002.758 (0) Zip: backup_2021-09-14-1805_Horse_Racing_News_af9f22f3b0c1-plugins.zip.tmp: 1100 files added (on-disk size: 6740.4 KB)
0002.801 (0) Zip: backup_2021-09-14-1805_Horse_Racing_News_af9f22f3b0c1-plugins.zip.tmp: 1200 files added (on-disk size: 6740.4 KB)
0002.843 (0) Zip: backup_2021-09-14-1805_Horse_Racing_News_af9f22f3b0c1-plugins.zip.tmp: 1300 files added (on-disk size: 6740.4 KB)
0002.886 (0) Zip: backup_2021-09-14-1805_Horse_Racing_News_af9f22f3b0c1-plugins.zip.tmp: 1400 files added (on-disk size: 6740.4 KB)
0002.928 (0) Zip: backup_2021-09-14-1805_Horse_Racing_News_af9f22f3b0c1-plugins.zip.tmp: 1500 files added (on-disk size: 6740.4 KB)
0002.961 (0) Adding batch to zip file (UpdraftPlus_BinZip): over 500 files added on this batch (7.3 MB, 8681 files batched, 501 (1503) added so far); re-opening (prior size: 6740.4 KB)
0003.281 (0) backup_2021-09-14-1805_Horse_Racing_News_af9f22f3b0c1-plugins.zip.tmp: size is now: 9.40 MB
0003.360 (0) Zip: backup_2021-09-14-1805_Horse_Racing_News_af9f22f3b0c1-plugins.zip.tmp: 1600 files added (on-disk size: 9638.6 KB)
0003.402 (0) Zip: backup_2021-09-14-1805_Horse_Racing_News_af9f22f3b0c1-plugins.zip.tmp: 1700 files added (on-disk size: 9638.6 KB)
0003.444 (0) Zip: backup_2021-09-14-1805_Horse_Racing_News_af9f22f3b0c1-plugins.zip.tmp: 1800 files added (on-disk size: 9638.6 KB)
0003.486 (0) Zip: backup_2021-09-14-1805_Horse_Racing_News_af9f22f3b0c1-plugins.zip.tmp: 1900 files added (on-disk size: 9638.6 KB)
0003.528 (0) Zip: backup_2021-09-14-1805_Horse_Racing_News_af9f22f3b0c1-plugins.zip.tmp: 2000 files added (on-disk size: 9638.6 KB)
0003.562 (0) Adding batch to zip file (UpdraftPlus_BinZip): over 500 files added on this batch (7.7 MB, 8681 files batched, 501 (2004) added so far); re-opening (prior size: 9638.6 KB)
0003.886 (0) backup_2021-09-14-1805_Horse_Racing_News_af9f22f3b0c1-plugins.zip.tmp: size is now: 13.50 MB
0003.965 (0) Zip: backup_2021-09-14-1805_Horse_Racing_News_af9f22f3b0c1-plugins.zip.tmp: 2100 files added (on-disk size: 13782 KB)
0004.007 (0) Zip: backup_2021-09-14-1805_Horse_Racing_News_af9f22f3b0c1-plugins.zip.tmp: 2200 files added (on-disk size: 13782 KB)
0004.049 (0) Zip: backup_2021-09-14-1805_Horse_Racing_News_af9f22f3b0c1-plugins.zip.tmp: 2300 files added (on-disk size: 13782 KB)
0004.090 (0) Zip: backup_2021-09-14-1805_Horse_Racing_News_af9f22f3b0c1-plugins.zip.tmp: 2400 files added (on-disk size: 13782 KB)
0004.132 (0) Zip: backup_2021-09-14-1805_Horse_Racing_News_af9f22f3b0c1-plugins.zip.tmp: 2500 files added (on-disk size: 13782 KB)
0004.166 (0) Adding batch to zip file (UpdraftPlus_BinZip): over 500 files added on this batch (12.1 MB, 8681 files batched, 501 (2505) added so far); re-opening (prior size: 13782 KB)
0004.731 (0) backup_2021-09-14-1805_Horse_Racing_News_af9f22f3b0c1-plugins.zip.tmp: size is now: 20.00 MB
0004.809 (0) Zip: backup_2021-09-14-1805_Horse_Racing_News_af9f22f3b0c1-plugins.zip.tmp: 2600 files added (on-disk size: 20454.6 KB)
0004.852 (0) Zip: backup_2021-09-14-1805_Horse_Racing_News_af9f22f3b0c1-plugins.zip.tmp: 2700 files added (on-disk size: 20454.6 KB)
0004.895 (0) Zip: backup_2021-09-14-1805_Horse_Racing_News_af9f22f3b0c1-plugins.zip.tmp: 2800 files added (on-disk size: 20454.6 KB)
0004.938 (0) Zip: backup_2021-09-14-1805_Horse_Racing_News_af9f22f3b0c1-plugins.zip.tmp: 2900 files added (on-disk size: 20454.6 KB)
0004.980 (0) Zip: backup_2021-09-14-1805_Horse_Racing_News_af9f22f3b0c1-plugins.zip.tmp: 3000 files added (on-disk size: 20454.6 KB)
0005.014 (0) Adding batch to zip file (UpdraftPlus_BinZip): over 500 files added on this batch (14.5 MB, 8681 files batched, 501 (3006) added so far); re-opening (prior size: 20454.6 KB)
0005.683 (0) backup_2021-09-14-1805_Horse_Racing_News_af9f22f3b0c1-plugins.zip.tmp: size is now: 25.10 MB
0005.765 (0) Zip: backup_2021-09-14-1805_Horse_Racing_News_af9f22f3b0c1-plugins.zip.tmp: 3100 files added (on-disk size: 25668.5 KB)
0005.810 (0) Zip: backup_2021-09-14-1805_Horse_Racing_News_af9f22f3b0c1-plugins.zip.tmp: 3200 files added (on-disk size: 25668.5 KB)
0005.853 (0) Zip: backup_2021-09-14-1805_Horse_Racing_News_af9f22f3b0c1-plugins.zip.tmp: 3300 files added (on-disk size: 25668.5 KB)
0005.897 (0) Zip: backup_2021-09-14-1805_Horse_Racing_News_af9f22f3b0c1-plugins.zip.tmp: 3400 files added (on-disk size: 25668.5 KB)
0005.940 (0) Zip: backup_2021-09-14-1805_Horse_Racing_News_af9f22f3b0c1-plugins.zip.tmp: 3500 files added (on-disk size: 25668.5 KB)
0005.973 (0) Adding batch to zip file (UpdraftPlus_BinZip): over 500 files added on this batch (4 MB, 8681 files batched, 501 (3507) added so far); re-opening (prior size: 25668.5 KB)
0006.271 (0) Zip: backup_2021-09-14-1805_Horse_Racing_News_af9f22f3b0c1-plugins.zip.tmp: 3600 files added (on-disk size: 27108.7 KB)
0006.315 (0) Zip: backup_2021-09-14-1805_Horse_Racing_News_af9f22f3b0c1-plugins.zip.tmp: 3700 files added (on-disk size: 27108.7 KB)
0006.360 (0) Zip: backup_2021-09-14-1805_Horse_Racing_News_af9f22f3b0c1-plugins.zip.tmp: 3800 files added (on-disk size: 27108.7 KB)
0006.403 (0) Zip: backup_2021-09-14-1805_Horse_Racing_News_af9f22f3b0c1-plugins.zip.tmp: 3900 files added (on-disk size: 27108.7 KB)
0006.445 (0) Zip: backup_2021-09-14-1805_Horse_Racing_News_af9f22f3b0c1-plugins.zip.tmp: 4000 files added (on-disk size: 27108.7 KB)
0006.478 (0) Adding batch to zip file (UpdraftPlus_BinZip): over 500 files added on this batch (2.9 MB, 8681 files batched, 501 (4008) added so far); re-opening (prior size: 27108.7 KB)
0006.732 (0) Zip: backup_2021-09-14-1805_Horse_Racing_News_af9f22f3b0c1-plugins.zip.tmp: 4100 files added (on-disk size: 28193.4 KB)
0006.776 (0) Zip: backup_2021-09-14-1805_Horse_Racing_News_af9f22f3b0c1-plugins.zip.tmp: 4200 files added (on-disk size: 28193.4 KB)
0006.819 (0) Zip: backup_2021-09-14-1805_Horse_Racing_News_af9f22f3b0c1-plugins.zip.tmp: 4300 files added (on-disk size: 28193.4 KB)
0006.862 (0) Zip: backup_2021-09-14-1805_Horse_Racing_News_af9f22f3b0c1-plugins.zip.tmp: 4400 files added (on-disk size: 28193.4 KB)
0006.905 (0) Zip: backup_2021-09-14-1805_Horse_Racing_News_af9f22f3b0c1-plugins.zip.tmp: 4500 files added (on-disk size: 28193.4 KB)
0006.940 (0) Adding batch to zip file (UpdraftPlus_BinZip): over 500 files added on this batch (9.1 MB, 8681 files batched, 501 (4509) added so far); re-opening (prior size: 28193.4 KB)
0007.358 (0) Zip: backup_2021-09-14-1805_Horse_Racing_News_af9f22f3b0c1-plugins.zip.tmp: 4600 files added (on-disk size: 32476.8 KB)
0007.401 (0) Zip: backup_2021-09-14-1805_Horse_Racing_News_af9f22f3b0c1-plugins.zip.tmp: 4700 files added (on-disk size: 32476.8 KB)
0007.444 (0) Zip: backup_2021-09-14-1805_Horse_Racing_News_af9f22f3b0c1-plugins.zip.tmp: 4800 files added (on-disk size: 32476.8 KB)
0007.488 (0) Zip: backup_2021-09-14-1805_Horse_Racing_News_af9f22f3b0c1-plugins.zip.tmp: 4900 files added (on-disk size: 32476.8 KB)
0007.530 (0) Zip: backup_2021-09-14-1805_Horse_Racing_News_af9f22f3b0c1-plugins.zip.tmp: 5000 files added (on-disk size: 32476.8 KB)
0007.564 (0) Adding batch to zip file (UpdraftPlus_BinZip): over 500 files added on this batch (7.3 MB, 8681 files batched, 501 (5010) added so far); re-opening (prior size: 32476.8 KB)
0007.949 (0) Zip: backup_2021-09-14-1805_Horse_Racing_News_af9f22f3b0c1-plugins.zip.tmp: 5100 files added (on-disk size: 34570.1 KB)
0007.993 (0) Zip: backup_2021-09-14-1805_Horse_Racing_News_af9f22f3b0c1-plugins.zip.tmp: 5200 files added (on-disk size: 34570.1 KB)
0008.036 (0) Zip: backup_2021-09-14-1805_Horse_Racing_News_af9f22f3b0c1-plugins.zip.tmp: 5300 files added (on-disk size: 34570.1 KB)
0008.078 (0) Zip: backup_2021-09-14-1805_Horse_Racing_News_af9f22f3b0c1-plugins.zip.tmp: 5400 files added (on-disk size: 34570.1 KB)
0008.122 (0) Zip: backup_2021-09-14-1805_Horse_Racing_News_af9f22f3b0c1-plugins.zip.tmp: 5500 files added (on-disk size: 34570.1 KB)
0008.157 (0) Adding batch to zip file (UpdraftPlus_BinZip): over 500 files added on this batch (18.3 MB, 8681 files batched, 501 (5511) added so far); re-opening (prior size: 34570.1 KB)
0009.104 (0) Zip: backup_2021-09-14-1805_Horse_Racing_News_af9f22f3b0c1-plugins.zip.tmp: 5600 files added (on-disk size: 39826.3 KB)
0009.150 (0) Zip: backup_2021-09-14-1805_Horse_Racing_News_af9f22f3b0c1-plugins.zip.tmp: 5700 files added (on-disk size: 39826.3 KB)
0009.193 (0) Zip: backup_2021-09-14-1805_Horse_Racing_News_af9f22f3b0c1-plugins.zip.tmp: 5800 files added (on-disk size: 39826.3 KB)
0009.238 (0) Zip: backup_2021-09-14-1805_Horse_Racing_News_af9f22f3b0c1-plugins.zip.tmp: 5900 files added (on-disk size: 39826.3 KB)
0009.283 (0) Zip: backup_2021-09-14-1805_Horse_Racing_News_af9f22f3b0c1-plugins.zip.tmp: 6000 files added (on-disk size: 39826.3 KB)
0009.318 (0) Adding batch to zip file (UpdraftPlus_BinZip): over 500 files added on this batch (1.8 MB, 8681 files batched, 501 (6012) added so far); re-opening (prior size: 39826.3 KB)
0009.569 (0) Zip: backup_2021-09-14-1805_Horse_Racing_News_af9f22f3b0c1-plugins.zip.tmp: 6100 files added (on-disk size: 40558.6 KB)
0009.612 (0) Zip: backup_2021-09-14-1805_Horse_Racing_News_af9f22f3b0c1-plugins.zip.tmp: 6200 files added (on-disk size: 40558.6 KB)
0009.655 (0) Zip: backup_2021-09-14-1805_Horse_Racing_News_af9f22f3b0c1-plugins.zip.tmp: 6300 files added (on-disk size: 40558.6 KB)
0009.703 (0) Zip: backup_2021-09-14-1805_Horse_Racing_News_af9f22f3b0c1-plugins.zip.tmp: 6400 files added (on-disk size: 40558.6 KB)
0009.746 (0) Zip: backup_2021-09-14-1805_Horse_Racing_News_af9f22f3b0c1-plugins.zip.tmp: 6500 files added (on-disk size: 40558.6 KB)
0009.781 (0) Adding batch to zip file (UpdraftPlus_BinZip): over 500 files added on this batch (5.9 MB, 8681 files batched, 501 (6513) added so far); re-opening (prior size: 40558.6 KB)
0010.191 (0) Zip: backup_2021-09-14-1805_Horse_Racing_News_af9f22f3b0c1-plugins.zip.tmp: 6600 files added (on-disk size: 42537.7 KB)
0010.236 (0) Zip: backup_2021-09-14-1805_Horse_Racing_News_af9f22f3b0c1-plugins.zip.tmp: 6700 files added (on-disk size: 42537.7 KB)
0010.278 (0) Zip: backup_2021-09-14-1805_Horse_Racing_News_af9f22f3b0c1-plugins.zip.tmp: 6800 files added (on-disk size: 42537.7 KB)
0010.321 (0) Zip: backup_2021-09-14-1805_Horse_Racing_News_af9f22f3b0c1-plugins.zip.tmp: 6900 files added (on-disk size: 42537.7 KB)
0010.364 (0) Zip: backup_2021-09-14-1805_Horse_Racing_News_af9f22f3b0c1-plugins.zip.tmp: 7000 files added (on-disk size: 42537.7 KB)
0010.398 (0) Adding batch to zip file (UpdraftPlus_BinZip): over 500 files added on this batch (9.7 MB, 8681 files batched, 501 (7014) added so far); re-opening (prior size: 42537.7 KB)
0011.242 (0) Zip: backup_2021-09-14-1805_Horse_Racing_News_af9f22f3b0c1-plugins.zip.tmp: 7100 files added (on-disk size: 46296.9 KB)
0011.287 (0) Zip: backup_2021-09-14-1805_Horse_Racing_News_af9f22f3b0c1-plugins.zip.tmp: 7200 files added (on-disk size: 46296.9 KB)
0011.330 (0) Zip: backup_2021-09-14-1805_Horse_Racing_News_af9f22f3b0c1-plugins.zip.tmp: 7300 files added (on-disk size: 46296.9 KB)
0011.374 (0) Zip: backup_2021-09-14-1805_Horse_Racing_News_af9f22f3b0c1-plugins.zip.tmp: 7400 files added (on-disk size: 46296.9 KB)
0011.418 (0) Zip: backup_2021-09-14-1805_Horse_Racing_News_af9f22f3b0c1-plugins.zip.tmp: 7500 files added (on-disk size: 46296.9 KB)
0011.454 (0) Adding batch to zip file (UpdraftPlus_BinZip): over 500 files added on this batch (6.2 MB, 8681 files batched, 501 (7515) added so far); re-opening (prior size: 46296.9 KB)
0011.867 (0) Zip: backup_2021-09-14-1805_Horse_Racing_News_af9f22f3b0c1-plugins.zip.tmp: 7600 files added (on-disk size: 48550.9 KB)
0011.911 (0) Zip: backup_2021-09-14-1805_Horse_Racing_News_af9f22f3b0c1-plugins.zip.tmp: 7700 files added (on-disk size: 48550.9 KB)
0011.953 (0) Zip: backup_2021-09-14-1805_Horse_Racing_News_af9f22f3b0c1-plugins.zip.tmp: 7800 files added (on-disk size: 48550.9 KB)
0011.995 (0) Zip: backup_2021-09-14-1805_Horse_Racing_News_af9f22f3b0c1-plugins.zip.tmp: 7900 files added (on-disk size: 48550.9 KB)
0012.039 (0) Zip: backup_2021-09-14-1805_Horse_Racing_News_af9f22f3b0c1-plugins.zip.tmp: 8000 files added (on-disk size: 48550.9 KB)
0012.075 (0) Adding batch to zip file (UpdraftPlus_BinZip): over 500 files added on this batch (7.1 MB, 8681 files batched, 501 (8016) added so far); re-opening (prior size: 48550.9 KB)
0012.568 (0) Zip: backup_2021-09-14-1805_Horse_Racing_News_af9f22f3b0c1-plugins.zip.tmp: 8100 files added (on-disk size: 50721.9 KB)
0012.612 (0) Zip: backup_2021-09-14-1805_Horse_Racing_News_af9f22f3b0c1-plugins.zip.tmp: 8200 files added (on-disk size: 50721.9 KB)
0012.661 (0) Zip: backup_2021-09-14-1805_Horse_Racing_News_af9f22f3b0c1-plugins.zip.tmp: 8300 files added (on-disk size: 50721.9 KB)
0012.705 (0) Zip: backup_2021-09-14-1805_Horse_Racing_News_af9f22f3b0c1-plugins.zip.tmp: 8400 files added (on-disk size: 50721.9 KB)
0012.751 (0) Zip: backup_2021-09-14-1805_Horse_Racing_News_af9f22f3b0c1-plugins.zip.tmp: 8500 files added (on-disk size: 50721.9 KB)
0012.827 (0) Adding batch to zip file (UpdraftPlus_BinZip): over 500 files added on this batch (3.2 MB, 8681 files batched, 501 (8517) added so far); re-opening (prior size: 50721.9 KB)
0013.158 (0) Zip: backup_2021-09-14-1805_Horse_Racing_News_af9f22f3b0c1-plugins.zip.tmp: 8600 files added (on-disk size: 51763 KB)
0014.139 (0) Created plugins zip (0) - 54276.2 KB in 13 s (4185.9 KB/s) (sha1: d717d7ec9b08c4e97bc31924ca0c2d5f33e6eb97, sha256: 9718204ba28e6d6ff1f0a83aa9589a6246362212cc1867236469a723567c32bc)
0014.218 (0) Beginning creation of dump of themes (split every: 400 MB)
0014.347 (0) Total entities for the zip file: 122 directories, 863 files (0 skipped as non-modified), 15 MB
0014.390 (0) Zip: backup_2021-09-14-1805_Horse_Racing_News_af9f22f3b0c1-themes.zip.tmp: 100 files added (on-disk size: 0 KB)
0014.433 (0) Zip: backup_2021-09-14-1805_Horse_Racing_News_af9f22f3b0c1-themes.zip.tmp: 200 files added (on-disk size: 0 KB)
0014.475 (0) Zip: backup_2021-09-14-1805_Horse_Racing_News_af9f22f3b0c1-themes.zip.tmp: 300 files added (on-disk size: 0 KB)
0014.518 (0) Zip: backup_2021-09-14-1805_Horse_Racing_News_af9f22f3b0c1-themes.zip.tmp: 400 files added (on-disk size: 0 KB)
0014.562 (0) Zip: backup_2021-09-14-1805_Horse_Racing_News_af9f22f3b0c1-themes.zip.tmp: 500 files added (on-disk size: 0 KB)
0014.596 (0) Adding batch to zip file (UpdraftPlus_BinZip): over 500 files added on this batch (8.1 MB, 863 files batched, 501 (501) added so far); re-opening (prior size: 0 KB)
0014.859 (0) backup_2021-09-14-1805_Horse_Racing_News_af9f22f3b0c1-themes.zip.tmp: size is now: 5.30 MB
0014.940 (0) Zip: backup_2021-09-14-1805_Horse_Racing_News_af9f22f3b0c1-themes.zip.tmp: 600 files added (on-disk size: 5477.9 KB)
0014.985 (0) Zip: backup_2021-09-14-1805_Horse_Racing_News_af9f22f3b0c1-themes.zip.tmp: 700 files added (on-disk size: 5477.9 KB)
0015.031 (0) Zip: backup_2021-09-14-1805_Horse_Racing_News_af9f22f3b0c1-themes.zip.tmp: 800 files added (on-disk size: 5477.9 KB)
0015.423 (0) backup_2021-09-14-1805_Horse_Racing_News_af9f22f3b0c1-themes.zip.tmp: size is now: 10.40 MB
0015.773 (0) Created themes zip (0) - 10599.3 KB in 1.5 s (7169.8 KB/s) (sha1: 25815af44c4682b032f8da60dae816f83e3bb423, sha256: 9f955ae0a4bc2f6d2be6381bad4d0d826214cdc1037c48fdb9f870da11dcd78a)
0015.844 (0) Exclusion option setting (uploads): backup*,*backups,backwpup*,wp-clone,snapshots
0015.879 (0) Looking for candidates to backup in: /home/ah/news.usracing.com/wp-content/uploads
0015.914 (0) finding files: 2014: adding to list (1)
0015.948 (0) finding files: 2015: adding to list (2)
0015.983 (0) finding files: 2016: adding to list (3)
0016.018 (0) finding files: 2017: adding to list (4)
0016.053 (0) finding files: 2018: adding to list (5)
0016.087 (0) finding files: 2019: adding to list (6)
0016.123 (0) finding files: 2020: adding to list (7)
0016.157 (0) finding files: gravatar: adding to list (8)
0016.192 (0) finding files: powerpress: adding to list (9)
0016.228 (0) finding files: 2021: adding to list (10)
0016.263 (0) Beginning creation of dump of uploads (split every: 400 MB)
0016.539 (0) Total entities for the zip file: 98 directories, 10074 files (0 skipped as non-modified), 3149.6 MB
0016.583 (0) Zip: backup_2021-09-14-1805_Horse_Racing_News_af9f22f3b0c1-uploads.zip.tmp: 100 files added (on-disk size: 0 KB)
0016.626 (0) Zip: backup_2021-09-14-1805_Horse_Racing_News_af9f22f3b0c1-uploads.zip.tmp: 200 files added (on-disk size: 0 KB)
0016.663 (0) Adding batch to zip file (UpdraftPlus_BinZip): over 25 MB added on this batch (25.1 MB, 10074 files batched, 233 (233) added so far); re-opening (prior size: 0 KB)
0017.334 (0) backup_2021-09-14-1805_Horse_Racing_News_af9f22f3b0c1-uploads.zip.tmp: size is now: 25.10 MB
0017.412 (0) A useful amount of data was added after this amount of zip processing: 2.1 s (normalised: 2.1 s, rate: 12482.4 KB/s)
0017.501 (0) Performance is good - will increase the amount of data we attempt to batch (time=2.0566589832306, normalised_time=2.0508859377201, max_time=17.447196960449, data points known=1, old_max_bytes=26214400, new_max_bytes=133805920)
0017.578 (0) Zip: backup_2021-09-14-1805_Horse_Racing_News_af9f22f3b0c1-uploads.zip.tmp: 300 files added (on-disk size: 25735.8 KB)
0017.617 (0) Adding batch to zip file (UpdraftPlus_BinZip): over 127.6 MB added on this batch (156.5 MB, 10074 files batched, 111 (344) added so far); re-opening (prior size: 25735.8 KB)
0018.609 (0) backup_2021-09-14-1805_Horse_Racing_News_af9f22f3b0c1-uploads.zip.tmp: size is now: 181.60 MB
0018.752 (0) A useful amount of data was added after this amount of zip processing: 1.4 s (normalised: 1.1 s, rate: 114726.2 KB/s)
0018.821 (0) Performance is good - will increase the amount of data we attempt to batch (time=1.3964350223541, normalised_time=1.1389712949999, max_time=18.785804986954, data points known=1, old_max_bytes=133805920, new_max_bytes=209715200)
0018.889 (0) Adding batch to zip file (UpdraftPlus_BinZip): over 200 MB added on this batch (226 MB, 10074 files batched, 7 (351) added so far); re-opening (prior size: 185965.8 KB)
0020.198 (0) backup_2021-09-14-1805_Horse_Racing_News_af9f22f3b0c1-uploads.zip.tmp: size is now: 407.60 MB
0020.268 (0) A useful amount of data was added after this amount of zip processing: 1.9 s (normalised: 1.7 s, rate: 121021.2 KB/s)
0020.302 (0) Performance is good - but we will not increase the amount of data we batch, as we are already at the present limit (time=1.9125819206238, normalised_time=1.6922658454408, max_time=20.302141904831, data points known=1, max_bytes=209715200)
0020.371 (0) Zip size is at/near split limit (407.6 MB / 400 MB) - bumping index (from: 0)
0025.450 (0) Created uploads zip (0) - 417430.4 KB in 4.1 s (102695.4 KB/s) (checksums: sha1: 989f29654ee0e616e527653e0531bc14fd9a1f65, sha256: a8d0fb69665fd5c47b339c70cd191b6b04e0467c65e108749c3734c553738240)
0025.517 (0) Adding batch to zip file (UpdraftPlus_BinZip): over 2.0 seconds have passed since the last write (31.1 MB, 1 (352) files added so far); re-opening (prior size: 0 KB)
0025.702 (0) backup_2021-09-14-1805_Horse_Racing_News_af9f22f3b0c1-uploads2.zip.tmp: size is now: 31.10 MB
0025.777 (0) Zip: backup_2021-09-14-1805_Horse_Racing_News_af9f22f3b0c1-uploads2.zip.tmp: 400 files added (on-disk size: 31876.3 KB)
0025.815 (0) Adding batch to zip file (UpdraftPlus_BinZip): over 200 MB added on this batch (200.1 MB, 10074 files batched, 88 (440) added so far); re-opening (prior size: 31876.3 KB)
0026.997 (0) backup_2021-09-14-1805_Horse_Racing_News_af9f22f3b0c1-uploads2.zip.tmp: size is now: 231.30 MB
0027.068 (0) A useful amount of data was added after this amount of zip processing: 1.7 s (normalised: 1.7 s, rate: 119647.8 KB/s)
0027.102 (0) Performance is good - but we will not increase the amount of data we batch, as we are already at the present limit (time=1.7126619815826, normalised_time=1.7116897681869, max_time=27.101917982101, data points known=1, max_bytes=209715200)
0027.175 (0) Adding batch to zip file (UpdraftPlus_BinZip): possibly approaching split limit (167.8 MB, 54 (494) files added so far); last ratio: 1; re-opening (prior size: 236810.9 KB)
0028.709 (0) backup_2021-09-14-1805_Horse_Racing_News_af9f22f3b0c1-uploads2.zip.tmp: size is now: 398.70 MB
0028.779 (0) Zip size is at/near split limit (398.7 MB / 400 MB) - bumping index (from: 1)
0033.671 (0) Created uploads zip (1) - 408299.1 KB in 3.3 s (122593.2 KB/s) (checksums: sha1: 48d3a18e0620a2cebfadf2f685272584e4856975, sha256: 0ccf2921ec477d68f073c9c911b819d23d387f811695f438603d7f462ade0b55)
0033.739 (0) Adding batch to zip file (UpdraftPlus_BinZip): over 2.0 seconds have passed since the last write (0.8 MB, 1 (495) files added so far); re-opening (prior size: 0 KB)
0033.816 (0) backup_2021-09-14-1805_Horse_Racing_News_af9f22f3b0c1-uploads3.zip.tmp: size is now: 0.80 MB
0033.886 (0) Zip: backup_2021-09-14-1805_Horse_Racing_News_af9f22f3b0c1-uploads3.zip.tmp: 500 files added (on-disk size: 807.1 KB)
0033.926 (0) Adding batch to zip file (UpdraftPlus_BinZip): over 200 MB added on this batch (200.8 MB, 10074 files batched, 81 (576) added so far); re-opening (prior size: 807.1 KB)
0037.318 (0) backup_2021-09-14-1805_Horse_Racing_News_af9f22f3b0c1-uploads3.zip.tmp: size is now: 199.70 MB
0037.390 (0) A useful amount of data was added after this amount of zip processing: 4 s (normalised: 4 s, rate: 50968.5 KB/s)
0037.427 (0) Performance is good - but we will not increase the amount of data we batch, as we are already at the present limit (time=4.0343370437622, normalised_time=4.0181642140708, max_time=37.426404953003, data points known=1, max_bytes=209715200)
0037.508 (0) Zip: backup_2021-09-14-1805_Horse_Racing_News_af9f22f3b0c1-uploads3.zip.tmp: 600 files added (on-disk size: 204534.7 KB)
0037.552 (0) Zip: backup_2021-09-14-1805_Horse_Racing_News_af9f22f3b0c1-uploads3.zip.tmp: 700 files added (on-disk size: 204534.7 KB)
0037.595 (0) Zip: backup_2021-09-14-1805_Horse_Racing_News_af9f22f3b0c1-uploads3.zip.tmp: 800 files added (on-disk size: 204534.7 KB)
0037.638 (0) Zip: backup_2021-09-14-1805_Horse_Racing_News_af9f22f3b0c1-uploads3.zip.tmp: 900 files added (on-disk size: 204534.7 KB)
0037.676 (0) Adding batch to zip file (UpdraftPlus_BinZip): possibly approaching split limit (183.8 MB, 370 (946) files added so far); last ratio: 0.9908; re-opening (prior size: 204534.7 KB)
0041.925 (0) backup_2021-09-14-1805_Horse_Racing_News_af9f22f3b0c1-uploads3.zip.tmp: size is now: 377.60 MB
0043.871 (0) Zip size is at/near split limit (377.6 MB / 400 MB) - bumping index (from: 2)
0050.729 (0) Created uploads zip (2) - 386665.5 KB in 12.1 s (31955.8 KB/s) (checksums: sha1: 373284386a850b60c24cf2530c568c5bdea17f7d, sha256: f58a2ce4dec69676b17f07398538add1f37837e98e812b810f46a35334907b1c)
0050.797 (0) Adding batch to zip file (UpdraftPlus_BinZip): over 2.0 seconds have passed since the last write (0 MB, 1 (947) files added so far); re-opening (prior size: 0 KB)
0050.840 (0) backup_2021-09-14-1805_Horse_Racing_News_af9f22f3b0c1-uploads4.zip.tmp: size is now: 0.00 MB
0050.915 (0) Zip: backup_2021-09-14-1805_Horse_Racing_News_af9f22f3b0c1-uploads4.zip.tmp: 1000 files added (on-disk size: 33.4 KB)
0050.958 (0) Zip: backup_2021-09-14-1805_Horse_Racing_News_af9f22f3b0c1-uploads4.zip.tmp: 1100 files added (on-disk size: 33.4 KB)
0051.001 (0) Zip: backup_2021-09-14-1805_Horse_Racing_News_af9f22f3b0c1-uploads4.zip.tmp: 1200 files added (on-disk size: 33.4 KB)
0051.043 (0) Zip: backup_2021-09-14-1805_Horse_Racing_News_af9f22f3b0c1-uploads4.zip.tmp: 1300 files added (on-disk size: 33.4 KB)
0051.085 (0) Zip: backup_2021-09-14-1805_Horse_Racing_News_af9f22f3b0c1-uploads4.zip.tmp: 1400 files added (on-disk size: 33.4 KB)
0051.123 (0) Adding batch to zip file (UpdraftPlus_BinZip): over 500 files added on this batch (112.6 MB, 10074 files batched, 501 (1448) added so far); re-opening (prior size: 33.4 KB)
0052.359 (0) backup_2021-09-14-1805_Horse_Racing_News_af9f22f3b0c1-uploads4.zip.tmp: size is now: 112.70 MB
0052.436 (0) Zip: backup_2021-09-14-1805_Horse_Racing_News_af9f22f3b0c1-uploads4.zip.tmp: 1500 files added (on-disk size: 115435.1 KB)
0052.479 (0) Zip: backup_2021-09-14-1805_Horse_Racing_News_af9f22f3b0c1-uploads4.zip.tmp: 1600 files added (on-disk size: 115435.1 KB)
0052.521 (0) Zip: backup_2021-09-14-1805_Horse_Racing_News_af9f22f3b0c1-uploads4.zip.tmp: 1700 files added (on-disk size: 115435.1 KB)
0052.569 (0) Zip: backup_2021-09-14-1805_Horse_Racing_News_af9f22f3b0c1-uploads4.zip.tmp: 1800 files added (on-disk size: 115435.1 KB)
0052.612 (0) Zip: backup_2021-09-14-1805_Horse_Racing_News_af9f22f3b0c1-uploads4.zip.tmp: 1900 files added (on-disk size: 115435.1 KB)
0052.650 (0) Adding batch to zip file (UpdraftPlus_BinZip): over 500 files added on this batch (192.9 MB, 10074 files batched, 501 (1949) added so far); re-opening (prior size: 115435.1 KB)
0054.421 (0) backup_2021-09-14-1805_Horse_Racing_News_af9f22f3b0c1-uploads4.zip.tmp: size is now: 305.60 MB
0054.496 (0) Zip: backup_2021-09-14-1805_Horse_Racing_News_af9f22f3b0c1-uploads4.zip.tmp: 2000 files added (on-disk size: 312957.7 KB)
0054.539 (0) Zip: backup_2021-09-14-1805_Horse_Racing_News_af9f22f3b0c1-uploads4.zip.tmp: 2100 files added (on-disk size: 312957.7 KB)
0054.581 (0) Zip: backup_2021-09-14-1805_Horse_Racing_News_af9f22f3b0c1-uploads4.zip.tmp: 2200 files added (on-disk size: 312957.7 KB)
0054.622 (0) Zip: backup_2021-09-14-1805_Horse_Racing_News_af9f22f3b0c1-uploads4.zip.tmp: 2300 files added (on-disk size: 312957.7 KB)
0054.660 (0) Adding batch to zip file (UpdraftPlus_BinZip): possibly approaching split limit (85.8 MB, 397 (2346) files added so far); last ratio: 1; re-opening (prior size: 312957.7 KB)
0056.368 (0) backup_2021-09-14-1805_Horse_Racing_News_af9f22f3b0c1-uploads4.zip.tmp: size is now: 389.90 MB
0056.438 (0) Zip size is at/near split limit (389.9 MB / 400 MB) - bumping index (from: 3)
0061.309 (0) Created uploads zip (3) - 399295.5 KB in 5.7 s (69943.8 KB/s) (checksums: sha1: 9aba61feacfe289136cf72832e87c9940f02691d, sha256: 1cf617c17444e58f16886bd352a7fb0d71ca6e104abfbed0dfc4850cdabf6c8c)
0061.379 (0) Adding batch to zip file (UpdraftPlus_BinZip): over 2.0 seconds have passed since the last write (0.1 MB, 1 (2347) files added so far); re-opening (prior size: 0 KB)
0061.426 (0) backup_2021-09-14-1805_Horse_Racing_News_af9f22f3b0c1-uploads5.zip.tmp: size is now: 0.10 MB
0061.501 (0) Zip: backup_2021-09-14-1805_Horse_Racing_News_af9f22f3b0c1-uploads5.zip.tmp: 2400 files added (on-disk size: 74.6 KB)
0061.545 (0) Zip: backup_2021-09-14-1805_Horse_Racing_News_af9f22f3b0c1-uploads5.zip.tmp: 2500 files added (on-disk size: 74.6 KB)
0061.589 (0) Zip: backup_2021-09-14-1805_Horse_Racing_News_af9f22f3b0c1-uploads5.zip.tmp: 2600 files added (on-disk size: 74.6 KB)
0061.634 (0) Zip: backup_2021-09-14-1805_Horse_Racing_News_af9f22f3b0c1-uploads5.zip.tmp: 2700 files added (on-disk size: 74.6 KB)
0061.679 (0) Zip: backup_2021-09-14-1805_Horse_Racing_News_af9f22f3b0c1-uploads5.zip.tmp: 2800 files added (on-disk size: 74.6 KB)
0061.718 (0) Adding batch to zip file (UpdraftPlus_BinZip): over 500 files added on this batch (72.9 MB, 10074 files batched, 501 (2848) added so far); re-opening (prior size: 74.6 KB)
0063.396 (0) backup_2021-09-14-1805_Horse_Racing_News_af9f22f3b0c1-uploads5.zip.tmp: size is now: 70.40 MB
0063.471 (0) Zip: backup_2021-09-14-1805_Horse_Racing_News_af9f22f3b0c1-uploads5.zip.tmp: 2900 files added (on-disk size: 72041.5 KB)
0063.516 (0) Zip: backup_2021-09-14-1805_Horse_Racing_News_af9f22f3b0c1-uploads5.zip.tmp: 3000 files added (on-disk size: 72041.5 KB)
0063.560 (0) Zip: backup_2021-09-14-1805_Horse_Racing_News_af9f22f3b0c1-uploads5.zip.tmp: 3100 files added (on-disk size: 72041.5 KB)
0063.604 (0) Zip: backup_2021-09-14-1805_Horse_Racing_News_af9f22f3b0c1-uploads5.zip.tmp: 3200 files added (on-disk size: 72041.5 KB)
0063.652 (0) Zip: backup_2021-09-14-1805_Horse_Racing_News_af9f22f3b0c1-uploads5.zip.tmp: 3300 files added (on-disk size: 72041.5 KB)
0063.694 (0) Adding batch to zip file (UpdraftPlus_BinZip): over 500 files added on this batch (74.9 MB, 10074 files batched, 501 (3349) added so far); re-opening (prior size: 72041.5 KB)
0064.779 (0) backup_2021-09-14-1805_Horse_Racing_News_af9f22f3b0c1-uploads5.zip.tmp: size is now: 145.30 MB
0064.860 (0) Zip: backup_2021-09-14-1805_Horse_Racing_News_af9f22f3b0c1-uploads5.zip.tmp: 3400 files added (on-disk size: 148782.2 KB)
0064.905 (0) Zip: backup_2021-09-14-1805_Horse_Racing_News_af9f22f3b0c1-uploads5.zip.tmp: 3500 files added (on-disk size: 148782.2 KB)
0064.951 (0) Zip: backup_2021-09-14-1805_Horse_Racing_News_af9f22f3b0c1-uploads5.zip.tmp: 3600 files added (on-disk size: 148782.2 KB)
0065.000 (0) Zip: backup_2021-09-14-1805_Horse_Racing_News_af9f22f3b0c1-uploads5.zip.tmp: 3700 files added (on-disk size: 148782.2 KB)
0065.048 (0) Zip: backup_2021-09-14-1805_Horse_Racing_News_af9f22f3b0c1-uploads5.zip.tmp: 3800 files added (on-disk size: 148782.2 KB)
0065.090 (0) Adding batch to zip file (UpdraftPlus_BinZip): over 500 files added on this batch (83.9 MB, 10074 files batched, 501 (3850) added so far); re-opening (prior size: 148782.2 KB)
0066.466 (0) backup_2021-09-14-1805_Horse_Racing_News_af9f22f3b0c1-uploads5.zip.tmp: size is now: 229.30 MB
0066.546 (0) Zip: backup_2021-09-14-1805_Horse_Racing_News_af9f22f3b0c1-uploads5.zip.tmp: 3900 files added (on-disk size: 234779.8 KB)
0066.592 (0) Zip: backup_2021-09-14-1805_Horse_Racing_News_af9f22f3b0c1-uploads5.zip.tmp: 4000 files added (on-disk size: 234779.8 KB)
0066.638 (0) Zip: backup_2021-09-14-1805_Horse_Racing_News_af9f22f3b0c1-uploads5.zip.tmp: 4100 files added (on-disk size: 234779.8 KB)
0066.685 (0) Zip: backup_2021-09-14-1805_Horse_Racing_News_af9f22f3b0c1-uploads5.zip.tmp: 4200 files added (on-disk size: 234779.8 KB)
0066.733 (0) Zip: backup_2021-09-14-1805_Horse_Racing_News_af9f22f3b0c1-uploads5.zip.tmp: 4300 files added (on-disk size: 234779.8 KB)
0066.776 (0) Adding batch to zip file (UpdraftPlus_BinZip): over 500 files added on this batch (89.4 MB, 10074 files batched, 501 (4351) added so far); re-opening (prior size: 234779.8 KB)
0068.196 (0) backup_2021-09-14-1805_Horse_Racing_News_af9f22f3b0c1-uploads5.zip.tmp: size is now: 318.80 MB
0068.277 (0) Zip: backup_2021-09-14-1805_Horse_Racing_News_af9f22f3b0c1-uploads5.zip.tmp: 4400 files added (on-disk size: 326408.3 KB)
0068.323 (0) Zip: backup_2021-09-14-1805_Horse_Racing_News_af9f22f3b0c1-uploads5.zip.tmp: 4500 files added (on-disk size: 326408.3 KB)
0068.371 (0) Adding batch to zip file (UpdraftPlus_BinZip): possibly approaching split limit (74.2 MB, 248 (4599) files added so far); last ratio: 1; re-opening (prior size: 326408.3 KB)
0069.499 (0) backup_2021-09-14-1805_Horse_Racing_News_af9f22f3b0c1-uploads5.zip.tmp: size is now: 393.00 MB
0069.578 (0) Zip size is at/near split limit (393 MB / 400 MB) - bumping index (from: 4)
0074.440 (0) Created uploads zip (4) - 402478.3 KB in 8.3 s (48663.1 KB/s) (checksums: sha1: cbea65ff4132637665316bc517ee4a4055c99a39, sha256: c525bdc3e4ddab2f1a87ac2a65fddc82a8fa5805e46b1568ae6213572c4b7efa)
0074.510 (0) Adding batch to zip file (UpdraftPlus_BinZip): over 2.0 seconds have passed since the last write (0 MB, 1 (4600) files added so far); re-opening (prior size: 0 KB)
0074.555 (0) backup_2021-09-14-1805_Horse_Racing_News_af9f22f3b0c1-uploads6.zip.tmp: size is now: 0.00 MB
0074.626 (0) Zip: backup_2021-09-14-1805_Horse_Racing_News_af9f22f3b0c1-uploads6.zip.tmp: 4600 files added (on-disk size: 19.5 KB)
0074.671 (0) Zip: backup_2021-09-14-1805_Horse_Racing_News_af9f22f3b0c1-uploads6.zip.tmp: 4700 files added (on-disk size: 19.5 KB)
0074.723 (0) Zip: backup_2021-09-14-1805_Horse_Racing_News_af9f22f3b0c1-uploads6.zip.tmp: 4800 files added (on-disk size: 19.5 KB)
0074.770 (0) Zip: backup_2021-09-14-1805_Horse_Racing_News_af9f22f3b0c1-uploads6.zip.tmp: 4900 files added (on-disk size: 19.5 KB)
0074.817 (0) Zip: backup_2021-09-14-1805_Horse_Racing_News_af9f22f3b0c1-uploads6.zip.tmp: 5000 files added (on-disk size: 19.5 KB)
0074.866 (0) Zip: backup_2021-09-14-1805_Horse_Racing_News_af9f22f3b0c1-uploads6.zip.tmp: 5100 files added (on-disk size: 19.5 KB)
0074.901 (0) Adding batch to zip file (UpdraftPlus_BinZip): over 500 files added on this batch (130.2 MB, 10074 files batched, 501 (5101) added so far); re-opening (prior size: 19.5 KB)
0076.371 (0) backup_2021-09-14-1805_Horse_Racing_News_af9f22f3b0c1-uploads6.zip.tmp: size is now: 130.30 MB
0076.467 (0) Zip: backup_2021-09-14-1805_Horse_Racing_News_af9f22f3b0c1-uploads6.zip.tmp: 5200 files added (on-disk size: 133457.9 KB)
0076.513 (0) Zip: backup_2021-09-14-1805_Horse_Racing_News_af9f22f3b0c1-uploads6.zip.tmp: 5300 files added (on-disk size: 133457.9 KB)
0076.560 (0) Zip: backup_2021-09-14-1805_Horse_Racing_News_af9f22f3b0c1-uploads6.zip.tmp: 5400 files added (on-disk size: 133457.9 KB)
0076.610 (0) Zip: backup_2021-09-14-1805_Horse_Racing_News_af9f22f3b0c1-uploads6.zip.tmp: 5500 files added (on-disk size: 133457.9 KB)
0076.660 (0) Zip: backup_2021-09-14-1805_Horse_Racing_News_af9f22f3b0c1-uploads6.zip.tmp: 5600 files added (on-disk size: 133457.9 KB)
0076.698 (0) Adding batch to zip file (UpdraftPlus_BinZip): over 500 files added on this batch (134.1 MB, 10074 files batched, 501 (5602) added so far); re-opening (prior size: 133457.9 KB)
0078.492 (0) backup_2021-09-14-1805_Horse_Racing_News_af9f22f3b0c1-uploads6.zip.tmp: size is now: 264.60 MB
0078.579 (0) Zip: backup_2021-09-14-1805_Horse_Racing_News_af9f22f3b0c1-uploads6.zip.tmp: 5700 files added (on-disk size: 270933.9 KB)
0078.629 (0) Zip: backup_2021-09-14-1805_Horse_Racing_News_af9f22f3b0c1-uploads6.zip.tmp: 5800 files added (on-disk size: 270933.9 KB)
0078.677 (0) Zip: backup_2021-09-14-1805_Horse_Racing_News_af9f22f3b0c1-uploads6.zip.tmp: 5900 files added (on-disk size: 270933.9 KB)
0078.724 (0) Zip: backup_2021-09-14-1805_Horse_Racing_News_af9f22f3b0c1-uploads6.zip.tmp: 6000 files added (on-disk size: 270933.9 KB)
0078.773 (0) Zip: backup_2021-09-14-1805_Horse_Racing_News_af9f22f3b0c1-uploads6.zip.tmp: 6100 files added (on-disk size: 270933.9 KB)
0078.810 (0) Adding batch to zip file (UpdraftPlus_BinZip): over 500 files added on this batch (74 MB, 10074 files batched, 501 (6103) added so far); re-opening (prior size: 270933.9 KB)
0083.974 (0) backup_2021-09-14-1805_Horse_Racing_News_af9f22f3b0c1-uploads6.zip.tmp: size is now: 338.70 MB
0085.224 (0) Zip: backup_2021-09-14-1805_Horse_Racing_News_af9f22f3b0c1-uploads6.zip.tmp: 6200 files added (on-disk size: 346813 KB)
0085.673 (0) Zip: backup_2021-09-14-1805_Horse_Racing_News_af9f22f3b0c1-uploads6.zip.tmp: 6300 files added (on-disk size: 346813 KB)
0085.722 (0) Adding batch to zip file (UpdraftPlus_BinZip): possibly approaching split limit (55.8 MB, 286 (6389) files added so far); last ratio: 1; re-opening (prior size: 346813 KB)
0086.820 (0) backup_2021-09-14-1805_Horse_Racing_News_af9f22f3b0c1-uploads6.zip.tmp: size is now: 394.60 MB
0086.894 (0) Zip size is at/near split limit (394.6 MB / 400 MB) - bumping index (from: 5)
0091.733 (0) Created uploads zip (5) - 404045.2 KB in 12.5 s (32444.3 KB/s) (checksums: sha1: b9577e3aaab8ec50952857672a597c53dae12b6f, sha256: 75c36b1d36dec2070a363d95a9b14b39e9e419abee19c75553b00bd5406d7f78)
0091.802 (0) Adding batch to zip file (UpdraftPlus_BinZip): over 2.0 seconds have passed since the last write (0.2 MB, 1 (6390) files added so far); re-opening (prior size: 0 KB)
0091.845 (0) backup_2021-09-14-1805_Horse_Racing_News_af9f22f3b0c1-uploads7.zip.tmp: size is now: 0.20 MB
0091.917 (0) Zip: backup_2021-09-14-1805_Horse_Racing_News_af9f22f3b0c1-uploads7.zip.tmp: 6400 files added (on-disk size: 154.8 KB)
0091.965 (0) Zip: backup_2021-09-14-1805_Horse_Racing_News_af9f22f3b0c1-uploads7.zip.tmp: 6500 files added (on-disk size: 154.8 KB)
0092.011 (0) Zip: backup_2021-09-14-1805_Horse_Racing_News_af9f22f3b0c1-uploads7.zip.tmp: 6600 files added (on-disk size: 154.8 KB)
0092.059 (0) Zip: backup_2021-09-14-1805_Horse_Racing_News_af9f22f3b0c1-uploads7.zip.tmp: 6700 files added (on-disk size: 154.8 KB)
0092.106 (0) Zip: backup_2021-09-14-1805_Horse_Racing_News_af9f22f3b0c1-uploads7.zip.tmp: 6800 files added (on-disk size: 154.8 KB)
0092.152 (0) Adding batch to zip file (UpdraftPlus_BinZip): over 500 files added on this batch (100.7 MB, 10074 files batched, 501 (6891) added so far); re-opening (prior size: 154.8 KB)
0093.353 (0) backup_2021-09-14-1805_Horse_Racing_News_af9f22f3b0c1-uploads7.zip.tmp: size is now: 101.00 MB
0093.430 (0) Zip: backup_2021-09-14-1805_Horse_Racing_News_af9f22f3b0c1-uploads7.zip.tmp: 6900 files added (on-disk size: 103431.9 KB)
0093.484 (0) Zip: backup_2021-09-14-1805_Horse_Racing_News_af9f22f3b0c1-uploads7.zip.tmp: 7000 files added (on-disk size: 103431.9 KB)
0093.533 (0) Zip: backup_2021-09-14-1805_Horse_Racing_News_af9f22f3b0c1-uploads7.zip.tmp: 7100 files added (on-disk size: 103431.9 KB)
0093.583 (0) Zip: backup_2021-09-14-1805_Horse_Racing_News_af9f22f3b0c1-uploads7.zip.tmp: 7200 files added (on-disk size: 103431.9 KB)
0093.634 (0) Zip: backup_2021-09-14-1805_Horse_Racing_News_af9f22f3b0c1-uploads7.zip.tmp: 7300 files added (on-disk size: 103431.9 KB)
0093.683 (0) Adding batch to zip file (UpdraftPlus_BinZip): over 500 files added on this batch (125.9 MB, 10074 files batched, 501 (7392) added so far); re-opening (prior size: 103431.9 KB)
0095.390 (0) backup_2021-09-14-1805_Horse_Racing_News_af9f22f3b0c1-uploads7.zip.tmp: size is now: 227.00 MB
0095.465 (0) Zip: backup_2021-09-14-1805_Horse_Racing_News_af9f22f3b0c1-uploads7.zip.tmp: 7400 files added (on-disk size: 232477.8 KB)
0095.511 (0) Zip: backup_2021-09-14-1805_Horse_Racing_News_af9f22f3b0c1-uploads7.zip.tmp: 7500 files added (on-disk size: 232477.8 KB)
0095.557 (0) Zip: backup_2021-09-14-1805_Horse_Racing_News_af9f22f3b0c1-uploads7.zip.tmp: 7600 files added (on-disk size: 232477.8 KB)
0095.605 (0) Zip: backup_2021-09-14-1805_Horse_Racing_News_af9f22f3b0c1-uploads7.zip.tmp: 7700 files added (on-disk size: 232477.8 KB)
0095.653 (0) Zip: backup_2021-09-14-1805_Horse_Racing_News_af9f22f3b0c1-uploads7.zip.tmp: 7800 files added (on-disk size: 232477.8 KB)
0095.700 (0) Adding batch to zip file (UpdraftPlus_BinZip): over 500 files added on this batch (119.7 MB, 10074 files batched, 501 (7893) added so far); re-opening (prior size: 232477.8 KB)
0097.530 (0) backup_2021-09-14-1805_Horse_Racing_News_af9f22f3b0c1-uploads7.zip.tmp: size is now: 346.90 MB
0097.605 (0) Zip: backup_2021-09-14-1805_Horse_Racing_News_af9f22f3b0c1-uploads7.zip.tmp: 7900 files added (on-disk size: 355190.9 KB)
0097.650 (0) Zip: backup_2021-09-14-1805_Horse_Racing_News_af9f22f3b0c1-uploads7.zip.tmp: 8000 files added (on-disk size: 355190.9 KB)
0097.697 (0) Adding batch to zip file (UpdraftPlus_BinZip): possibly approaching split limit (48.5 MB, 202 (8095) files added so far); last ratio: 1; re-opening (prior size: 355190.9 KB)
0098.835 (0) Zip size is at/near split limit (395.4 MB / 400 MB) - bumping index (from: 6)
0103.731 (0) Created uploads zip (6) - 404866 KB in 7.1 s (57013 KB/s) (checksums: sha1: 39ac7f6a5e0224220939c245c360ea1e785f5df2, sha256: d7e79864ff870d868121ba9616b2dbc30a5b0b558df346d11692f57456462c10)
0103.804 (0) Adding batch to zip file (UpdraftPlus_BinZip): over 2.0 seconds have passed since the last write (0.9 MB, 1 (8096) files added so far); re-opening (prior size: 0 KB)
0103.852 (0) backup_2021-09-14-1805_Horse_Racing_News_af9f22f3b0c1-uploads8.zip.tmp: size is now: 0.90 MB
0103.924 (0) Zip: backup_2021-09-14-1805_Horse_Racing_News_af9f22f3b0c1-uploads8.zip.tmp: 8100 files added (on-disk size: 955.8 KB)
0103.969 (0) Zip: backup_2021-09-14-1805_Horse_Racing_News_af9f22f3b0c1-uploads8.zip.tmp: 8200 files added (on-disk size: 955.8 KB)
0104.015 (0) Zip: backup_2021-09-14-1805_Horse_Racing_News_af9f22f3b0c1-uploads8.zip.tmp: 8300 files added (on-disk size: 955.8 KB)
0104.067 (0) Zip: backup_2021-09-14-1805_Horse_Racing_News_af9f22f3b0c1-uploads8.zip.tmp: 8400 files added (on-disk size: 955.8 KB)
0104.118 (0) Zip: backup_2021-09-14-1805_Horse_Racing_News_af9f22f3b0c1-uploads8.zip.tmp: 8500 files added (on-disk size: 955.8 KB)
0104.167 (0) Adding batch to zip file (UpdraftPlus_BinZip): over 500 files added on this batch (130.4 MB, 10074 files batched, 501 (8597) added so far); re-opening (prior size: 955.8 KB)
0105.723 (0) backup_2021-09-14-1805_Horse_Racing_News_af9f22f3b0c1-uploads8.zip.tmp: size is now: 131.50 MB
0105.802 (0) Zip: backup_2021-09-14-1805_Horse_Racing_News_af9f22f3b0c1-uploads8.zip.tmp: 8600 files added (on-disk size: 134653.4 KB)
0105.849 (0) Zip: backup_2021-09-14-1805_Horse_Racing_News_af9f22f3b0c1-uploads8.zip.tmp: 8700 files added (on-disk size: 134653.4 KB)
0105.896 (0) Zip: backup_2021-09-14-1805_Horse_Racing_News_af9f22f3b0c1-uploads8.zip.tmp: 8800 files added (on-disk size: 134653.4 KB)
0105.945 (0) Zip: backup_2021-09-14-1805_Horse_Racing_News_af9f22f3b0c1-uploads8.zip.tmp: 8900 files added (on-disk size: 134653.4 KB)
0105.995 (0) Zip: backup_2021-09-14-1805_Horse_Racing_News_af9f22f3b0c1-uploads8.zip.tmp: 9000 files added (on-disk size: 134653.4 KB)
0106.045 (0) Adding batch to zip file (UpdraftPlus_BinZip): over 500 files added on this batch (100 MB, 10074 files batched, 501 (9098) added so far); re-opening (prior size: 134653.4 KB)
0107.800 (0) backup_2021-09-14-1805_Horse_Racing_News_af9f22f3b0c1-uploads8.zip.tmp: size is now: 231.60 MB
0107.876 (0) Zip: backup_2021-09-14-1805_Horse_Racing_News_af9f22f3b0c1-uploads8.zip.tmp: 9100 files added (on-disk size: 237208.1 KB)
0107.925 (0) Zip: backup_2021-09-14-1805_Horse_Racing_News_af9f22f3b0c1-uploads8.zip.tmp: 9200 files added (on-disk size: 237208.1 KB)
0107.979 (0) Zip: backup_2021-09-14-1805_Horse_Racing_News_af9f22f3b0c1-uploads8.zip.tmp: 9300 files added (on-disk size: 237208.1 KB)
0108.029 (0) Zip: backup_2021-09-14-1805_Horse_Racing_News_af9f22f3b0c1-uploads8.zip.tmp: 9400 files added (on-disk size: 237208.1 KB)
0108.079 (0) Zip: backup_2021-09-14-1805_Horse_Racing_News_af9f22f3b0c1-uploads8.zip.tmp: 9500 files added (on-disk size: 237208.1 KB)
0108.132 (0) Adding batch to zip file (UpdraftPlus_BinZip): over 500 files added on this batch (121.9 MB, 10074 files batched, 501 (9599) added so far); re-opening (prior size: 237208.1 KB)
0109.929 (0) backup_2021-09-14-1805_Horse_Racing_News_af9f22f3b0c1-uploads8.zip.tmp: size is now: 353.70 MB
0110.004 (0) Zip: backup_2021-09-14-1805_Horse_Racing_News_af9f22f3b0c1-uploads8.zip.tmp: 9600 files added (on-disk size: 362181.4 KB)
0110.049 (0) Zip: backup_2021-09-14-1805_Horse_Racing_News_af9f22f3b0c1-uploads8.zip.tmp: 9700 files added (on-disk size: 362181.4 KB)
0110.095 (0) Zip: backup_2021-09-14-1805_Horse_Racing_News_af9f22f3b0c1-uploads8.zip.tmp: 9800 files added (on-disk size: 362181.4 KB)
0110.143 (0) Zip: backup_2021-09-14-1805_Horse_Racing_News_af9f22f3b0c1-uploads8.zip.tmp: 9900 files added (on-disk size: 362181.4 KB)
0110.191 (0) Zip: backup_2021-09-14-1805_Horse_Racing_News_af9f22f3b0c1-uploads8.zip.tmp: 10000 files added (on-disk size: 362181.4 KB)
0117.484 (0) Created uploads zip (7) - 391476.5 KB in 13.7 s (28537.7 KB/s) (sha1: 9b4b109ed46935fc04763fb4bb3b7ac2fde51996, sha256: eda519bb69ee0247f4d91babfe94af27c65696f960b273c3e6ea243e506dc73f)
0118.497 (0) Beginning backup of other directories found in the content directory (index: 0)
0118.532 (0) Exclusion option setting (others): upgrade,cache,updraft,backup*,*backups,mysql.sql,debug.log
0118.566 (0) Looking for candidates to backup in: /home/ah/news.usracing.com/wp-content
0118.601 (0) finding files: authors: adding to list (1)
0118.637 (0) finding files: cimy-user-manager: adding to list (2)
0118.681 (0) finding files: plugins: skipping: this is the plugins directory
0118.716 (0) finding files: themes: skipping: this is the themes directory
0118.749 (0) finding files: updraft: skipping: this is the updraft directory
0118.784 (0) finding files: upgrade: skipping: excluded by options
0118.818 (0) finding files: uploads: skipping: this is the uploads directory
0118.852 (0) finding files: wflogs: adding to list (3)
0118.885 (0) finding files: .htaccess: adding to list (4)
0118.923 (0) finding files: HTABAK.txt: adding to list (5)
0118.957 (0) finding files: index.php: adding to list (6)
0118.992 (0) finding files: debug.log: skipping: excluded by options
0119.112 (0) Total entities for the zip file: 3 directories, 77 files (0 skipped as non-modified), 6 MB
0119.689 (0) backup_2021-09-14-1805_Horse_Racing_News_af9f22f3b0c1-others.zip.tmp: size is now: 3.10 MB
0119.871 (0) Created others zip (0) - 3130 KB in 0.8 s (3915.5 KB/s) (sha1: 28df2cec3fc0a3d2e2f4e57424cad184ad3475c8, sha256: 108f5222c671eaeef1dcee4ac414a26d207829a7d8a8fd429b2783c83720db3c)
0120.013 (0) Saving backup status to database (elements: 15)
0120.087 (0) Beginning creation of database dump (WordPress DB)
0120.157 (0) Testing potential mysqldump binary: /usr/bin/mysqldump
0120.267 (0) Output: /*!40103 SET @OLD_TIME_ZONE=@@TIME_ZONE */;\n/*!40103 SET TIME_ZONE='+00:00' */;\n/*!40014 SET @OLD_UNIQUE_CHECKS=@@UNIQUE_CHECKS, UNIQUE_CHECKS=0 */;\n/*!40014 SET @OLD_FOREIGN_KEY_CHECKS=@@FOREIGN_KEY_CHECKS, FOREIGN_KEY_CHECKS=0 */;\n/*!40101 SET @OLD_SQL_MODE=@@SQL_MODE, SQL_MODE='NO_AUTO_VALUE_ON_ZERO' */;\n/*!40111 SET @OLD_SQL_NOTES=@@SQL_NOTES, SQL_NOTES=0 */;\nDROP TABLE IF EXISTS `wp_blog_options`;\n/*!40101 SET @saved_cs_client     = @@character_set_client */;\n/*!40101 SET character_set_client = utf8 */ (truncated - 1246 bytes total)
0120.311 (0) Working binary mysqldump found: /usr/bin/mysqldump
0120.436 (0) Table wp_blog_options: Total expected rows (approximate): 550
0120.626 (0) Table wp_blog_options: Rows added in this batch (start page: 0; next: finished): 560 in 0.16 seconds
0120.663 (0) Table wp_blog_options: finishing file (backup_2021-09-14-1805_Horse_Racing_News_af9f22f3b0c1-db-table-wp_blog_options.table.gz - 521.3 KB)
0120.774 (0) Table wp_blog_users: Total expected rows (approximate): 91
0120.820 (0) Table wp_blog_users: Rows added in this batch (start page: 0; next: finished): 91 in 0.01 seconds
0120.855 (0) Table wp_blog_users: finishing file (backup_2021-09-14-1805_Horse_Racing_News_af9f22f3b0c1-db-table-wp_blog_users.table.gz - 8.3 KB)
0120.964 (0) Table wp_blog_usermeta: Total expected rows (approximate): 4520
0121.086 (0) Table wp_blog_usermeta: Rows added in this batch (start page: 0; next: finished): 4507 in 0.09 seconds
0121.122 (0) Table wp_blog_usermeta: finishing file (backup_2021-09-14-1805_Horse_Racing_News_af9f22f3b0c1-db-table-wp_blog_usermeta.table.gz - 59.3 KB)
0121.231 (0) Table wp_blog_commentmeta: Total expected rows (approximate): 0
0121.272 (0) Table wp_blog_commentmeta: Rows added in this batch (start page: 0; next: finished): 0 in 0.01 seconds
0121.308 (0) Table wp_blog_commentmeta: finishing file (backup_2021-09-14-1805_Horse_Racing_News_af9f22f3b0c1-db-table-wp_blog_commentmeta.table.gz - 0.4 KB)
0121.418 (0) Table wp_blog_comments: Total expected rows (approximate): 0
0121.463 (0) Table wp_blog_comments: Rows added in this batch (start page: 0; next: finished): 1 in 0.01 seconds
0121.498 (0) Table wp_blog_comments: finishing file (backup_2021-09-14-1805_Horse_Racing_News_af9f22f3b0c1-db-table-wp_blog_comments.table.gz - 0.7 KB)
0121.609 (0) Table wp_blog_links: Total expected rows (approximate): 0
0121.650 (0) Table wp_blog_links: Rows added in this batch (start page: 0; next: finished): 0 in 0.01 seconds
0121.687 (0) Table wp_blog_links: finishing file (backup_2021-09-14-1805_Horse_Racing_News_af9f22f3b0c1-db-table-wp_blog_links.table.gz - 0.4 KB)
0121.795 (0) Table wp_blog_postmeta: Total expected rows (approximate): 53781
0122.187 (0) Table wp_blog_postmeta: binary mysqldump finished (writes: 37) in 0.36 seconds
0122.248 (0) Table wp_blog_postmeta: finishing file (backup_2021-09-14-1805_Horse_Racing_News_af9f22f3b0c1-db-table-wp_blog_postmeta.table.gz - 852.8 KB)
0122.356 (0) Table wp_blog_posts: Total expected rows (approximate): 9282
0129.829 (0) Table wp_blog_posts: binary mysqldump finished (writes: 190) in 7.44 seconds
0129.868 (0) Table wp_blog_posts: finishing file (backup_2021-09-14-1805_Horse_Racing_News_af9f22f3b0c1-db-table-wp_blog_posts.table.gz - 19618.3 KB)
0129.980 (0) Table wp_blog_term_relationships: Total expected rows (approximate): 17525
0130.088 (0) Table wp_blog_term_relationships: binary mysqldump finished (writes: 30) in 0.07 seconds
0130.126 (0) Table wp_blog_term_relationships: finishing file (backup_2021-09-14-1805_Horse_Racing_News_af9f22f3b0c1-db-table-wp_blog_term_relationships.table.gz - 52.4 KB)
0130.241 (0) Table wp_blog_term_taxonomy: Total expected rows (approximate): 2347
0131.085 (0) Table wp_blog_term_taxonomy: Rows added in this batch (start page: 0; next: finished): 2347 in 0.05 seconds
0131.504 (0) Table wp_blog_term_taxonomy: finishing file (backup_2021-09-14-1805_Horse_Racing_News_af9f22f3b0c1-db-table-wp_blog_term_taxonomy.table.gz - 15 KB)
0131.656 (0) Table wp_blog_termmeta: Total expected rows (approximate): 2177
0131.736 (0) Table wp_blog_termmeta: Rows added in this batch (start page: 0; next: finished): 2184 in 0.04 seconds
0131.773 (0) Table wp_blog_termmeta: finishing file (backup_2021-09-14-1805_Horse_Racing_News_af9f22f3b0c1-db-table-wp_blog_termmeta.table.gz - 17.1 KB)
0131.886 (0) Table wp_blog_terms: Total expected rows (approximate): 2183
0131.973 (0) Table wp_blog_terms: Rows added in this batch (start page: 0; next: finished): 2347 in 0.05 seconds
0132.009 (0) Table wp_blog_terms: finishing file (backup_2021-09-14-1805_Horse_Racing_News_af9f22f3b0c1-db-table-wp_blog_terms.table.gz - 36.7 KB)
0132.117 (0) Table wp_blog_yoast_seo_links: Total expected rows (approximate): 17797
0132.429 (0) Table wp_blog_yoast_seo_links: binary mysqldump finished (writes: 33) in 0.28 seconds
0132.468 (0) Table wp_blog_yoast_seo_links: finishing file (backup_2021-09-14-1805_Horse_Racing_News_af9f22f3b0c1-db-table-wp_blog_yoast_seo_links.table.gz - 236.4 KB)
0132.579 (0) Table wp_blog_yoast_seo_meta: Total expected rows (approximate): 6630
0132.702 (0) Table wp_blog_yoast_seo_meta: Rows added in this batch (start page: 0; next: finished): 6768 in 0.09 seconds
0132.773 (0) Table wp_blog_yoast_seo_meta: finishing file (backup_2021-09-14-1805_Horse_Racing_News_af9f22f3b0c1-db-table-wp_blog_yoast_seo_meta.table.gz - 18.7 KB)
0132.887 (0) Table wp_blog_hmp_playlist: Total expected rows (approximate): 0
0132.930 (0) Table wp_blog_hmp_playlist: Rows added in this batch (start page: 0; next: finished): 0 in 0.00 seconds
0132.967 (0) Table wp_blog_hmp_playlist: finishing file (backup_2021-09-14-1805_Horse_Racing_News_af9f22f3b0c1-db-table-wp_blog_hmp_playlist.table.gz - 0.4 KB)
0133.082 (0) Table wp_blog_hmp_rating: Total expected rows (approximate): 0
0133.122 (0) Table wp_blog_hmp_rating: Rows added in this batch (start page: 0; next: finished): 0 in 0.00 seconds
0133.157 (0) Table wp_blog_hmp_rating: finishing file (backup_2021-09-14-1805_Horse_Racing_News_af9f22f3b0c1-db-table-wp_blog_hmp_rating.table.gz - 0.3 KB)
0133.268 (0) Table wp_blog_huge_it_share_params: Total expected rows (approximate): 41
0133.310 (0) Table wp_blog_huge_it_share_params: Rows added in this batch (start page: 0; next: finished): 41 in 0.01 seconds
0133.345 (0) Table wp_blog_huge_it_share_params: finishing file (backup_2021-09-14-1805_Horse_Racing_News_af9f22f3b0c1-db-table-wp_blog_huge_it_share_params.table.gz - 1.2 KB)
0133.456 (0) Table wp_blog_huge_it_share_params_posts: Total expected rows (approximate): 0
0133.495 (0) Table wp_blog_huge_it_share_params_posts: Rows added in this batch (start page: 0; next: finished): 0 in 0.00 seconds
0133.531 (0) Table wp_blog_huge_it_share_params_posts: finishing file (backup_2021-09-14-1805_Horse_Racing_News_af9f22f3b0c1-db-table-wp_blog_huge_it_share_params_posts.table.gz - 0.3 KB)
0133.644 (0) Table wp_blog_ninja_table_items: Total expected rows (approximate): 87
0133.689 (0) Table wp_blog_ninja_table_items: Rows added in this batch (start page: 0; next: finished): 87 in 0.01 seconds
0133.725 (0) Table wp_blog_ninja_table_items: finishing file (backup_2021-09-14-1805_Horse_Racing_News_af9f22f3b0c1-db-table-wp_blog_ninja_table_items.table.gz - 2.3 KB)
0133.839 (0) Table wp_blog_nxs_log: Total expected rows (approximate): 251
0133.895 (0) Table wp_blog_nxs_log: Rows added in this batch (start page: 0; next: finished): 251 in 0.02 seconds
0133.932 (0) Table wp_blog_nxs_log: finishing file (backup_2021-09-14-1805_Horse_Racing_News_af9f22f3b0c1-db-table-wp_blog_nxs_log.table.gz - 3.9 KB)
0134.050 (0) Table wp_blog_smush_dir_images: Total expected rows (approximate): 0
0134.092 (0) Table wp_blog_smush_dir_images: Rows added in this batch (start page: 0; next: finished): 0 in 0.01 seconds
0134.127 (0) Table wp_blog_smush_dir_images: finishing file (backup_2021-09-14-1805_Horse_Racing_News_af9f22f3b0c1-db-table-wp_blog_smush_dir_images.table.gz - 0.4 KB)
0134.235 (0) Table wp_blog_wfBlockedIPLog: Total expected rows (approximate): 384
0134.282 (0) Table wp_blog_wfBlockedIPLog: Rows added in this batch (start page: 0; next: finished): 384 in 0.01 seconds
0134.318 (0) Table wp_blog_wfBlockedIPLog: finishing file (backup_2021-09-14-1805_Horse_Racing_News_af9f22f3b0c1-db-table-wp_blog_wfBlockedIPLog.table.gz - 3.4 KB)
0134.427 (0) Table wp_blog_wfBlocks7: Total expected rows (approximate): 27
0134.469 (0) Table wp_blog_wfBlocks7: Rows added in this batch (start page: 0; next: finished): 27 in 0.01 seconds
0134.504 (0) Table wp_blog_wfBlocks7: finishing file (backup_2021-09-14-1805_Horse_Racing_News_af9f22f3b0c1-db-table-wp_blog_wfBlocks7.table.gz - 1.1 KB)
0134.613 (0) Table wp_blog_wfConfig: Total expected rows (approximate): 277
0134.731 (0) Table wp_blog_wfConfig: Rows added in this batch (start page: 0; next: finished): 280 in 0.08 seconds
0134.767 (0) Table wp_blog_wfConfig: finishing file (backup_2021-09-14-1805_Horse_Racing_News_af9f22f3b0c1-db-table-wp_blog_wfConfig.table.gz - 462.1 KB)
0134.874 (0) Table wp_blog_wfCrawlers: Total expected rows (approximate): 0
0134.915 (0) Table wp_blog_wfCrawlers: Rows added in this batch (start page: 0; next: finished): 0 in 0.01 seconds
0134.950 (0) Table wp_blog_wfCrawlers: finishing file (backup_2021-09-14-1805_Horse_Racing_News_af9f22f3b0c1-db-table-wp_blog_wfCrawlers.table.gz - 0.3 KB)
0135.062 (0) Table wp_blog_wfFileChanges: Total expected rows (approximate): 0
0135.103 (0) Table wp_blog_wfFileChanges: Rows added in this batch (start page: 0; next: finished): 0 in 0.01 seconds
0135.138 (0) Table wp_blog_wfFileChanges: finishing file (backup_2021-09-14-1805_Horse_Racing_News_af9f22f3b0c1-db-table-wp_blog_wfFileChanges.table.gz - 0.3 KB)
0135.250 (0) Table wp_blog_wfFileMods: Total expected rows (approximate): 9583
0135.865 (0) Table wp_blog_wfFileMods: binary mysqldump finished (writes: 37) in 0.58 seconds
0135.903 (0) Table wp_blog_wfFileMods: finishing file (backup_2021-09-14-1805_Horse_Racing_News_af9f22f3b0c1-db-table-wp_blog_wfFileMods.table.gz - 1029.4 KB)
0136.024 (0) Table wp_blog_wfHits: Total expected rows (approximate): 2901
0136.201 (0) Table wp_blog_wfHits: Rows added in this batch (start page: 0; next: finished): 2901 in 0.14 seconds
0136.237 (0) Table wp_blog_wfHits: finishing file (backup_2021-09-14-1805_Horse_Racing_News_af9f22f3b0c1-db-table-wp_blog_wfHits.table.gz - 40 KB)
0136.350 (0) Table wp_blog_wfHoover: Total expected rows (approximate): 0
0136.394 (0) Table wp_blog_wfHoover: Rows added in this batch (start page: 0; next: finished): 0 in 0.01 seconds
0136.430 (0) Table wp_blog_wfHoover: finishing file (backup_2021-09-14-1805_Horse_Racing_News_af9f22f3b0c1-db-table-wp_blog_wfHoover.table.gz - 0.3 KB)
0136.545 (0) Table wp_blog_wfIssues: Total expected rows (approximate): 28
0136.593 (0) Table wp_blog_wfIssues: Rows added in this batch (start page: 0; next: finished): 28 in 0.01 seconds
0136.629 (0) Table wp_blog_wfIssues: finishing file (backup_2021-09-14-1805_Horse_Racing_News_af9f22f3b0c1-db-table-wp_blog_wfIssues.table.gz - 6 KB)
0136.743 (0) Table wp_blog_wfKnownFileList: Total expected rows (approximate): 11084
0136.915 (0) Table wp_blog_wfKnownFileList: binary mysqldump finished (writes: 28) in 0.13 seconds
0136.955 (0) Table wp_blog_wfKnownFileList: finishing file (backup_2021-09-14-1805_Horse_Racing_News_af9f22f3b0c1-db-table-wp_blog_wfKnownFileList.table.gz - 110.8 KB)
0137.099 (0) Table wp_blog_wfLiveTrafficHuman: Total expected rows (approximate): 3
0137.144 (0) Table wp_blog_wfLiveTrafficHuman: Rows added in this batch (start page: 0; next: finished): 3 in 0.01 seconds
0137.186 (0) Table wp_blog_wfLiveTrafficHuman: finishing file (backup_2021-09-14-1805_Horse_Racing_News_af9f22f3b0c1-db-table-wp_blog_wfLiveTrafficHuman.table.gz - 0.4 KB)
0137.306 (0) Table wp_blog_wfLocs: Total expected rows (approximate): 2
0137.352 (0) Table wp_blog_wfLocs: Rows added in this batch (start page: 0; next: finished): 2 in 0.01 seconds
0137.393 (0) Table wp_blog_wfLocs: finishing file (backup_2021-09-14-1805_Horse_Racing_News_af9f22f3b0c1-db-table-wp_blog_wfLocs.table.gz - 0.5 KB)
0137.511 (0) Table wp_blog_wfLogins: Total expected rows (approximate): 2018
0137.633 (0) Table wp_blog_wfLogins: Rows added in this batch (start page: 0; next: finished): 2004 in 0.08 seconds
0137.671 (0) Table wp_blog_wfLogins: finishing file (backup_2021-09-14-1805_Horse_Racing_News_af9f22f3b0c1-db-table-wp_blog_wfLogins.table.gz - 53.7 KB)
0137.790 (0) Table wp_blog_wfNotifications: Total expected rows (approximate): 8
0137.835 (0) Table wp_blog_wfNotifications: Rows added in this batch (start page: 0; next: finished): 8 in 0.01 seconds
0137.873 (0) Table wp_blog_wfNotifications: finishing file (backup_2021-09-14-1805_Horse_Racing_News_af9f22f3b0c1-db-table-wp_blog_wfNotifications.table.gz - 3.4 KB)
0137.992 (0) Table wp_blog_wfPendingIssues: Total expected rows (approximate): 0
0138.038 (0) Table wp_blog_wfPendingIssues: Rows added in this batch (start page: 0; next: finished): 0 in 0.01 seconds
0138.075 (0) Table wp_blog_wfPendingIssues: finishing file (backup_2021-09-14-1805_Horse_Racing_News_af9f22f3b0c1-db-table-wp_blog_wfPendingIssues.table.gz - 0.4 KB)
0138.209 (0) Table wp_blog_wfReverseCache: Total expected rows (approximate): 2
0138.252 (0) Table wp_blog_wfReverseCache: Rows added in this batch (start page: 0; next: finished): 2 in 0.01 seconds
0138.288 (0) Table wp_blog_wfReverseCache: finishing file (backup_2021-09-14-1805_Horse_Racing_News_af9f22f3b0c1-db-table-wp_blog_wfReverseCache.table.gz - 0.4 KB)
0138.408 (0) Table wp_blog_wfSNIPCache: Total expected rows (approximate): 0
0138.449 (0) Table wp_blog_wfSNIPCache: Rows added in this batch (start page: 0; next: finished): 0 in 0.00 seconds
0138.485 (0) Table wp_blog_wfSNIPCache: finishing file (backup_2021-09-14-1805_Horse_Racing_News_af9f22f3b0c1-db-table-wp_blog_wfSNIPCache.table.gz - 0.4 KB)
0138.609 (0) Table wp_blog_wfStatus: Total expected rows (approximate): 955
0138.683 (0) Table wp_blog_wfStatus: Rows added in this batch (start page: 0; next: finished): 955 in 0.04 seconds
0138.722 (0) Table wp_blog_wfStatus: finishing file (backup_2021-09-14-1805_Horse_Racing_News_af9f22f3b0c1-db-table-wp_blog_wfStatus.table.gz - 15.3 KB)
0138.848 (0) Table wp_blog_wfTrafficRates: Total expected rows (approximate): 0
0138.891 (0) Table wp_blog_wfTrafficRates: Rows added in this batch (start page: 0; next: finished): 0 in 0.01 seconds
0138.935 (0) Table wp_blog_wfTrafficRates: finishing file (backup_2021-09-14-1805_Horse_Racing_News_af9f22f3b0c1-db-table-wp_blog_wfTrafficRates.table.gz - 0.3 KB)
0139.077 (0) Table wp_blog_wfls_2fa_secrets: Total expected rows (approximate): 0
0139.138 (0) Table wp_blog_wfls_2fa_secrets: Rows added in this batch (start page: 0; next: finished): 0 in 0.01 seconds
0139.185 (0) Table wp_blog_wfls_2fa_secrets: finishing file (backup_2021-09-14-1805_Horse_Racing_News_af9f22f3b0c1-db-table-wp_blog_wfls_2fa_secrets.table.gz - 0.4 KB)
0139.315 (0) Table wp_blog_wfls_settings: Total expected rows (approximate): 17
0139.373 (0) Table wp_blog_wfls_settings: Rows added in this batch (start page: 0; next: finished): 19 in 0.01 seconds
0139.411 (0) Table wp_blog_wfls_settings: finishing file (backup_2021-09-14-1805_Horse_Racing_News_af9f22f3b0c1-db-table-wp_blog_wfls_settings.table.gz - 0.8 KB)
0139.551 (0) Table wp_blog_wpeditor_settings: Total expected rows (approximate): 24
0139.601 (0) Table wp_blog_wpeditor_settings: Rows added in this batch (start page: 0; next: finished): 24 in 0.01 seconds
0139.638 (0) Table wp_blog_wpeditor_settings: finishing file (backup_2021-09-14-1805_Horse_Racing_News_af9f22f3b0c1-db-table-wp_blog_wpeditor_settings.table.gz - 0.6 KB)
0139.798 (0) Table wp_blog_yoast_indexable: Total expected rows (approximate): 3584
0140.559 (0) Table wp_blog_yoast_indexable: Rows added in this batch (start page: 0; next: finished): 3961 in 0.72 seconds
0140.595 (0) Table wp_blog_yoast_indexable: finishing file (backup_2021-09-14-1805_Horse_Racing_News_af9f22f3b0c1-db-table-wp_blog_yoast_indexable.table.gz - 654.1 KB)
0140.707 (0) Table wp_blog_yoast_indexable_hierarchy: Total expected rows (approximate): 329
0140.753 (0) Table wp_blog_yoast_indexable_hierarchy: Rows added in this batch (start page: 0; next: finished): 329 in 0.01 seconds
0140.790 (0) Table wp_blog_yoast_indexable_hierarchy: finishing file (backup_2021-09-14-1805_Horse_Racing_News_af9f22f3b0c1-db-table-wp_blog_yoast_indexable_hierarchy.table.gz - 1.9 KB)
0140.901 (0) Table wp_blog_yoast_migrations: Total expected rows (approximate): 17
0140.945 (0) Table wp_blog_yoast_migrations: Rows added in this batch (start page: 0; next: finished): 17 in 0.01 seconds
0140.985 (0) Table wp_blog_yoast_migrations: finishing file (backup_2021-09-14-1805_Horse_Racing_News_af9f22f3b0c1-db-table-wp_blog_yoast_migrations.table.gz - 0.5 KB)
0141.100 (0) Table wp_blog_yoast_primary_term: Total expected rows (approximate): 1799
0141.205 (0) Table wp_blog_yoast_primary_term: Rows added in this batch (start page: 0; next: finished): 1799 in 0.07 seconds
0141.243 (0) Table wp_blog_yoast_primary_term: finishing file (backup_2021-09-14-1805_Horse_Racing_News_af9f22f3b0c1-db-table-wp_blog_yoast_primary_term.table.gz - 25.4 KB)
0141.320 (0) backup_2021-09-14-1805_Horse_Racing_News_af9f22f3b0c1-db-table-wp_blog_options.table.gz (1/47): adding to final database dump
0141.452 (0) backup_2021-09-14-1805_Horse_Racing_News_af9f22f3b0c1-db-table-wp_blog_users.table.gz (2/47): adding to final database dump
0141.489 (0) backup_2021-09-14-1805_Horse_Racing_News_af9f22f3b0c1-db-table-wp_blog_usermeta.table.gz (3/47): adding to final database dump
0141.556 (0) backup_2021-09-14-1805_Horse_Racing_News_af9f22f3b0c1-db-table-wp_blog_commentmeta.table.gz (4/47): adding to final database dump
0141.593 (0) backup_2021-09-14-1805_Horse_Racing_News_af9f22f3b0c1-db-table-wp_blog_comments.table.gz (5/47): adding to final database dump
0141.629 (0) backup_2021-09-14-1805_Horse_Racing_News_af9f22f3b0c1-db-table-wp_blog_links.table.gz (6/47): adding to final database dump
0141.665 (0) backup_2021-09-14-1805_Horse_Racing_News_af9f22f3b0c1-db-table-wp_blog_postmeta.table.gz (7/47): adding to final database dump
0141.894 (0) backup_2021-09-14-1805_Horse_Racing_News_af9f22f3b0c1-db-table-wp_blog_posts.table.gz (8/47): adding to final database dump
0146.758 (0) backup_2021-09-14-1805_Horse_Racing_News_af9f22f3b0c1-db-table-wp_blog_term_relationships.table.gz (9/47): adding to final database dump
0146.811 (0) backup_2021-09-14-1805_Horse_Racing_News_af9f22f3b0c1-db-table-wp_blog_term_taxonomy.table.gz (10/47): adding to final database dump
0146.862 (0) backup_2021-09-14-1805_Horse_Racing_News_af9f22f3b0c1-db-table-wp_blog_termmeta.table.gz (11/47): adding to final database dump
0146.910 (0) backup_2021-09-14-1805_Horse_Racing_News_af9f22f3b0c1-db-table-wp_blog_terms.table.gz (12/47): adding to final database dump
0146.963 (0) backup_2021-09-14-1805_Horse_Racing_News_af9f22f3b0c1-db-table-wp_blog_yoast_seo_links.table.gz (13/47): adding to final database dump
0147.049 (0) backup_2021-09-14-1805_Horse_Racing_News_af9f22f3b0c1-db-table-wp_blog_yoast_seo_meta.table.gz (14/47): adding to final database dump
0147.114 (0) backup_2021-09-14-1805_Horse_Racing_News_af9f22f3b0c1-db-table-wp_blog_hmp_playlist.table.gz (15/47): adding to final database dump
0147.150 (0) backup_2021-09-14-1805_Horse_Racing_News_af9f22f3b0c1-db-table-wp_blog_hmp_rating.table.gz (16/47): adding to final database dump
0147.186 (0) backup_2021-09-14-1805_Horse_Racing_News_af9f22f3b0c1-db-table-wp_blog_huge_it_share_params.table.gz (17/47): adding to final database dump
0147.221 (0) backup_2021-09-14-1805_Horse_Racing_News_af9f22f3b0c1-db-table-wp_blog_huge_it_share_params_posts.table.gz (18/47): adding to final database dump
0147.258 (0) backup_2021-09-14-1805_Horse_Racing_News_af9f22f3b0c1-db-table-wp_blog_ninja_table_items.table.gz (19/47): adding to final database dump
0147.295 (0) backup_2021-09-14-1805_Horse_Racing_News_af9f22f3b0c1-db-table-wp_blog_nxs_log.table.gz (20/47): adding to final database dump
0147.332 (0) backup_2021-09-14-1805_Horse_Racing_News_af9f22f3b0c1-db-table-wp_blog_smush_dir_images.table.gz (21/47): adding to final database dump
0147.367 (0) backup_2021-09-14-1805_Horse_Racing_News_af9f22f3b0c1-db-table-wp_blog_wfBlockedIPLog.table.gz (22/47): adding to final database dump
0147.405 (0) backup_2021-09-14-1805_Horse_Racing_News_af9f22f3b0c1-db-table-wp_blog_wfBlocks7.table.gz (23/47): adding to final database dump
0147.441 (0) backup_2021-09-14-1805_Horse_Racing_News_af9f22f3b0c1-db-table-wp_blog_wfConfig.table.gz (24/47): adding to final database dump
0147.549 (0) backup_2021-09-14-1805_Horse_Racing_News_af9f22f3b0c1-db-table-wp_blog_wfCrawlers.table.gz (25/47): adding to final database dump
0147.585 (0) backup_2021-09-14-1805_Horse_Racing_News_af9f22f3b0c1-db-table-wp_blog_wfFileChanges.table.gz (26/47): adding to final database dump
0147.621 (0) backup_2021-09-14-1805_Horse_Racing_News_af9f22f3b0c1-db-table-wp_blog_wfFileMods.table.gz (27/47): adding to final database dump
0147.762 (0) backup_2021-09-14-1805_Horse_Racing_News_af9f22f3b0c1-db-table-wp_blog_wfHits.table.gz (28/47): adding to final database dump
0147.818 (0) backup_2021-09-14-1805_Horse_Racing_News_af9f22f3b0c1-db-table-wp_blog_wfHoover.table.gz (29/47): adding to final database dump
0147.854 (0) backup_2021-09-14-1805_Horse_Racing_News_af9f22f3b0c1-db-table-wp_blog_wfIssues.table.gz (30/47): adding to final database dump
0147.891 (0) backup_2021-09-14-1805_Horse_Racing_News_af9f22f3b0c1-db-table-wp_blog_wfKnownFileList.table.gz (31/47): adding to final database dump
0147.950 (0) backup_2021-09-14-1805_Horse_Racing_News_af9f22f3b0c1-db-table-wp_blog_wfLiveTrafficHuman.table.gz (32/47): adding to final database dump
0147.986 (0) backup_2021-09-14-1805_Horse_Racing_News_af9f22f3b0c1-db-table-wp_blog_wfLocs.table.gz (33/47): adding to final database dump
0148.021 (0) backup_2021-09-14-1805_Horse_Racing_News_af9f22f3b0c1-db-table-wp_blog_wfLogins.table.gz (34/47): adding to final database dump
0148.076 (0) backup_2021-09-14-1805_Horse_Racing_News_af9f22f3b0c1-db-table-wp_blog_wfNotifications.table.gz (35/47): adding to final database dump
0148.112 (0) backup_2021-09-14-1805_Horse_Racing_News_af9f22f3b0c1-db-table-wp_blog_wfPendingIssues.table.gz (36/47): adding to final database dump
0148.147 (0) backup_2021-09-14-1805_Horse_Racing_News_af9f22f3b0c1-db-table-wp_blog_wfReverseCache.table.gz (37/47): adding to final database dump
0148.182 (0) backup_2021-09-14-1805_Horse_Racing_News_af9f22f3b0c1-db-table-wp_blog_wfSNIPCache.table.gz (38/47): adding to final database dump
0148.218 (0) backup_2021-09-14-1805_Horse_Racing_News_af9f22f3b0c1-db-table-wp_blog_wfStatus.table.gz (39/47): adding to final database dump
0148.277 (0) backup_2021-09-14-1805_Horse_Racing_News_af9f22f3b0c1-db-table-wp_blog_wfTrafficRates.table.gz (40/47): adding to final database dump
0148.313 (0) backup_2021-09-14-1805_Horse_Racing_News_af9f22f3b0c1-db-table-wp_blog_wfls_2fa_secrets.table.gz (41/47): adding to final database dump
0148.349 (0) backup_2021-09-14-1805_Horse_Racing_News_af9f22f3b0c1-db-table-wp_blog_wfls_settings.table.gz (42/47): adding to final database dump
0148.388 (0) backup_2021-09-14-1805_Horse_Racing_News_af9f22f3b0c1-db-table-wp_blog_wpeditor_settings.table.gz (43/47): adding to final database dump
0148.425 (0) backup_2021-09-14-1805_Horse_Racing_News_af9f22f3b0c1-db-table-wp_blog_yoast_indexable.table.gz (44/47): adding to final database dump
0148.593 (0) backup_2021-09-14-1805_Horse_Racing_News_af9f22f3b0c1-db-table-wp_blog_yoast_indexable_hierarchy.table.gz (45/47): adding to final database dump
0148.632 (0) backup_2021-09-14-1805_Horse_Racing_News_af9f22f3b0c1-db-table-wp_blog_yoast_migrations.table.gz (46/47): adding to final database dump
0148.666 (0) backup_2021-09-14-1805_Horse_Racing_News_af9f22f3b0c1-db-table-wp_blog_yoast_primary_term.table.gz (47/47): adding to final database dump
0148.722 (0) backup_2021-09-14-1805_Horse_Racing_News_af9f22f3b0c1-db.gz: finished writing out complete database file (23832 KB)
0149.215 (0) Total database tables backed up: 47 (backup_2021-09-14-1805_Horse_Racing_News_af9f22f3b0c1-db.gz, size: 24430072, sha1: de231f71f65cec5a2ff3983548679cff144a0160, sha256: eb3aaf92885a8e713b6b18363517b58e7ec6d5d2a01a43252aa4ae5e5fa99d87)
0149.400 (0) backup_2021-09-14-1805_Horse_Racing_News_af9f22f3b0c1-plugins.zip: plugins: This file has not yet been successfully uploaded: will queue
0149.434 (0) backup_2021-09-14-1805_Horse_Racing_News_af9f22f3b0c1-themes.zip: themes: This file has not yet been successfully uploaded: will queue
0149.469 (0) backup_2021-09-14-1805_Horse_Racing_News_af9f22f3b0c1-uploads.zip: uploads: This file has not yet been successfully uploaded: will queue
0149.503 (0) backup_2021-09-14-1805_Horse_Racing_News_af9f22f3b0c1-uploads2.zip: uploads: This file has not yet been successfully uploaded: will queue
0149.538 (0) backup_2021-09-14-1805_Horse_Racing_News_af9f22f3b0c1-uploads3.zip: uploads: This file has not yet been successfully uploaded: will queue
0149.572 (0) backup_2021-09-14-1805_Horse_Racing_News_af9f22f3b0c1-uploads4.zip: uploads: This file has not yet been successfully uploaded: will queue
0149.610 (0) backup_2021-09-14-1805_Horse_Racing_News_af9f22f3b0c1-uploads5.zip: uploads: This file has not yet been successfully uploaded: will queue
0149.644 (0) backup_2021-09-14-1805_Horse_Racing_News_af9f22f3b0c1-uploads6.zip: uploads: This file has not yet been successfully uploaded: will queue
0149.679 (0) backup_2021-09-14-1805_Horse_Racing_News_af9f22f3b0c1-uploads7.zip: uploads: This file has not yet been successfully uploaded: will queue
0149.714 (0) backup_2021-09-14-1805_Horse_Racing_News_af9f22f3b0c1-uploads8.zip: uploads: This file has not yet been successfully uploaded: will queue
0149.749 (0) backup_2021-09-14-1805_Horse_Racing_News_af9f22f3b0c1-others.zip: others: This file has not yet been successfully uploaded: will queue
0149.784 (0) backup_2021-09-14-1805_Horse_Racing_News_af9f22f3b0c1-db.gz: db: This file has not yet been successfully uploaded: will queue
0149.821 (0) Saving backup history. Total backup size: 3.2 GB
0149.898 (0) Requesting upload of the files that have not yet been successfully uploaded (12)
0150.005 (0) Cloud backup selection (1/1): none with instance (1/1) (last)
0150.040 (0) No remote despatch: user chose no remote backup service
0150.076 (0) Recording as successfully uploaded: backup_2021-09-14-1805_Horse_Racing_News_af9f22f3b0c1-plugins.zip
0150.153 (0) Recording as successfully uploaded: backup_2021-09-14-1805_Horse_Racing_News_af9f22f3b0c1-themes.zip
0150.226 (0) Recording as successfully uploaded: backup_2021-09-14-1805_Horse_Racing_News_af9f22f3b0c1-uploads.zip
0150.303 (0) Recording as successfully uploaded: backup_2021-09-14-1805_Horse_Racing_News_af9f22f3b0c1-uploads2.zip
0150.390 (0) Recording as successfully uploaded: backup_2021-09-14-1805_Horse_Racing_News_af9f22f3b0c1-uploads3.zip
0150.469 (0) Recording as successfully uploaded: backup_2021-09-14-1805_Horse_Racing_News_af9f22f3b0c1-uploads4.zip
0150.563 (0) Recording as successfully uploaded: backup_2021-09-14-1805_Horse_Racing_News_af9f22f3b0c1-uploads5.zip
0150.655 (0) Recording as successfully uploaded: backup_2021-09-14-1805_Horse_Racing_News_af9f22f3b0c1-uploads6.zip
0150.731 (0) Recording as successfully uploaded: backup_2021-09-14-1805_Horse_Racing_News_af9f22f3b0c1-uploads7.zip
0150.814 (0) Recording as successfully uploaded: backup_2021-09-14-1805_Horse_Racing_News_af9f22f3b0c1-uploads8.zip
0150.890 (0) Recording as successfully uploaded: backup_2021-09-14-1805_Horse_Racing_News_af9f22f3b0c1-others.zip
0150.966 (0) Recording as successfully uploaded: backup_2021-09-14-1805_Horse_Racing_News_af9f22f3b0c1-db.gz
0151.090 (0) Retain: beginning examination of existing backup sets; user setting: retain_files=2, retain_db=2
0151.128 (0) Number of backup sets in history: 3; groups (db): 1
0151.166 (0) Examining (for databases) backup set with group_id=0, nonce=af9f22f3b0c1, datestamp=1631657144 (Sep 14 2021 22:05:44)
0151.204 (0) This backup set is the backup set just made, so will not be deleted.
0151.204 (0) Examining (for databases) backup set with group_id=0, nonce=6f63d81a4f02, datestamp=1577735174 (Dec 30 2019 19:46:14)
0151.204 (0) This backup set remains non-empty (f=1/d=1); will retain in history
0151.242 (0) Examining (for databases) backup set with group_id=0, nonce=1c1abc6bb2e9, datestamp=1562606100 (Jul 08 2019 17:15:00)
0151.242 (0) 1562606100: db: this set includes a database (backup_2019-07-08-1215_Horse_Racing_News_1c1abc6bb2e9-db.gz); db count is now 2
0151.242 (0) 1562606100: db: over retain limit (2); will delete this database
0151.242 (0) Delete file: backup_2019-07-08-1215_Horse_Racing_News_1c1abc6bb2e9-db.gz, service=none
0151.280 (0) Deleting local copy (backup_2019-07-08-1215_Horse_Racing_News_1c1abc6bb2e9-db.gz)
0151.357 (0) This backup set remains non-empty (f=1/d=0); will retain in history
0151.394 (0) Number of backup sets in history: 3; groups (files): 1
0151.433 (0) Examining (for files) backup set with nonce=af9f22f3b0c1, datestamp=1631657144 (Sep 14 2021 22:05:44)
0151.433 (0) This backup set is the backup set just made, so will not be deleted.
0151.474 (0) This backup set is the backup set just made, so will not be deleted.
0151.474 (0) This backup set is the backup set just made, so will not be deleted.
0151.474 (0) This backup set is the backup set just made, so will not be deleted.
0151.475 (0) This backup set remains non-empty (f=1/d=1); will retain in history
0151.512 (0) Examining (for files) backup set with nonce=6f63d81a4f02, datestamp=1577735174 (Dec 30 2019 19:46:14)
0151.512 (0) This backup set remains non-empty (f=1/d=1); will retain in history
0151.513 (0) Examining (for files) backup set with nonce=1c1abc6bb2e9, datestamp=1562606100 (Jul 08 2019 17:15:00)
0151.513 (0) plugins: over retain limit (2); will delete this file entity
0151.513 (0) themes: over retain limit (2); will delete this file entity
0151.513 (0) uploads: over retain limit (2); will delete this file entity
0151.513 (0) others: over retain limit (2); will delete this file entity
0151.513 (0) Delete file: backup_2019-07-08-1215_Horse_Racing_News_1c1abc6bb2e9-plugins.zip, service=none
0151.551 (0) Deleting local copy (backup_2019-07-08-1215_Horse_Racing_News_1c1abc6bb2e9-plugins.zip)
0151.586 (0) Delete file: backup_2019-07-08-1215_Horse_Racing_News_1c1abc6bb2e9-themes.zip, service=none
0151.622 (0) Deleting local copy (backup_2019-07-08-1215_Horse_Racing_News_1c1abc6bb2e9-themes.zip)
0151.657 (0) Delete file: backup_2019-07-08-1215_Horse_Racing_News_1c1abc6bb2e9-uploads8.zip, service=none
0151.694 (0) Deleting local copy (backup_2019-07-08-1215_Horse_Racing_News_1c1abc6bb2e9-uploads8.zip)
0151.733 (0) Delete file: backup_2019-07-08-1215_Horse_Racing_News_1c1abc6bb2e9-uploads7.zip, service=none
0151.767 (0) Deleting local copy (backup_2019-07-08-1215_Horse_Racing_News_1c1abc6bb2e9-uploads7.zip)
0151.804 (0) Delete file: backup_2019-07-08-1215_Horse_Racing_News_1c1abc6bb2e9-uploads.zip, service=none
0151.847 (0) Deleting local copy (backup_2019-07-08-1215_Horse_Racing_News_1c1abc6bb2e9-uploads.zip)
0151.883 (0) Delete file: backup_2019-07-08-1215_Horse_Racing_News_1c1abc6bb2e9-uploads5.zip, service=none
0151.919 (0) Deleting local copy (backup_2019-07-08-1215_Horse_Racing_News_1c1abc6bb2e9-uploads5.zip)
0151.954 (0) Delete file: backup_2019-07-08-1215_Horse_Racing_News_1c1abc6bb2e9-uploads9.zip, service=none
0151.990 (0) Deleting local copy (backup_2019-07-08-1215_Horse_Racing_News_1c1abc6bb2e9-uploads9.zip)
0152.025 (0) Delete file: backup_2019-07-08-1215_Horse_Racing_News_1c1abc6bb2e9-uploads10.zip, service=none
0152.061 (0) Deleting local copy (backup_2019-07-08-1215_Horse_Racing_News_1c1abc6bb2e9-uploads10.zip)
0152.096 (0) Delete file: backup_2019-07-08-1215_Horse_Racing_News_1c1abc6bb2e9-uploads12.zip, service=none
0152.131 (0) Deleting local copy (backup_2019-07-08-1215_Horse_Racing_News_1c1abc6bb2e9-uploads12.zip)
0152.167 (0) Delete file: backup_2019-07-08-1215_Horse_Racing_News_1c1abc6bb2e9-uploads2.zip, service=none
0152.203 (0) Deleting local copy (backup_2019-07-08-1215_Horse_Racing_News_1c1abc6bb2e9-uploads2.zip)
0152.238 (0) Delete file: backup_2019-07-08-1215_Horse_Racing_News_1c1abc6bb2e9-uploads3.zip, service=none
0152.273 (0) Deleting local copy (backup_2019-07-08-1215_Horse_Racing_News_1c1abc6bb2e9-uploads3.zip)
0152.309 (0) Delete file: backup_2019-07-08-1215_Horse_Racing_News_1c1abc6bb2e9-uploads11.zip, service=none
0152.344 (0) Deleting local copy (backup_2019-07-08-1215_Horse_Racing_News_1c1abc6bb2e9-uploads11.zip)
0152.379 (0) Delete file: backup_2019-07-08-1215_Horse_Racing_News_1c1abc6bb2e9-uploads6.zip, service=none
0152.415 (0) Deleting local copy (backup_2019-07-08-1215_Horse_Racing_News_1c1abc6bb2e9-uploads6.zip)
0152.450 (0) Delete file: backup_2019-07-08-1215_Horse_Racing_News_1c1abc6bb2e9-uploads4.zip, service=none
0152.485 (0) Deleting local copy (backup_2019-07-08-1215_Horse_Racing_News_1c1abc6bb2e9-uploads4.zip)
0152.521 (0) Delete file: backup_2019-07-08-1215_Horse_Racing_News_1c1abc6bb2e9-others.zip, service=none
0152.557 (0) Deleting local copy (backup_2019-07-08-1215_Horse_Racing_News_1c1abc6bb2e9-others.zip)
0152.630 (0) This backup set is now empty; will remove from history
0152.664 (0) Corresponding log file (log.1c1abc6bb2e9.txt) not found - must have already been deleted
0152.699 (0) Retain: saving new backup history (sets now: 2) and finishing retain operation
0152.816 (0) Resume backup (af9f22f3b0c1, 0): finish run
0152.900 (0) Decremented the semaphore (fd) by 1
0152.948 (0) Semaphore (fd) unlocked
0152.991 (0) There were no errors in the uploads, so the 'resume' event (1) is being unscheduled
0153.107 (0) No email will/can be sent - the user has not configured an email address.
0153.142 (0) The backup apparently succeeded and is now complete
