<?xml version="1.0" encoding="ISO-8859-1"?>
<pagevariables>
<meta http-equiv="Content-Type" content="text/html; charset=utf-8" />

<title>Belmont Stakes Results | Bet on the {%BELMONT-YEAR%} Belmont Stakes</title>
<meta name="description" content="Belmont Stakes Results - Results for the Grade 1, {%BELMONT-PURSE%} stakes race for 3 year-old thoroughbreds on {%BELMONT-DATE%} at Belmont Park." />
<meta name="keywords" content="belmont stakes, belmont stakes results, bet on belmont, {%BELMONT-YEAR%}, odds, how to bet" />

<meta property="og:title" content="Belmont Stakes Results | Bet on the {%BELMONT-YEAR%} Belmont Stakes " />
<meta property="og:url" content="https://www.usracing.com/belmont-stakes/results" />
<meta property="og:image" content="/img/belmontstakes/belmont-stakes-betting-og.jpg" />
<meta property="og:description" content="Belmont Stakes Results - The results for the {%BELMONT-PURSE%} race running on {%BELMONT-DATE%} at Belmont Park!"/>
<link type="text/css" rel="stylesheet" media="print" href="/themes/yaml/core/slim_print_base.css?1" />

<sidebars></sidebars>

<classes>
page page-belmontstakes-results section-belmontstakes-results
</classes>

<switch_variables>

<BS_Switch_Early>
<title>Belmont Stakes Results | Bet on the Belmont Stakes Now!</title>
<meta name="description" content="Belmont Stakes Results - The results for the {%BELMONT-PURSE%} race running on {%BELMONT-DATE%} at Belmont Park!  Get up to a {%BONUS-WELCOME%} welcome bonus, free bets and more. Place your bets now." />
<meta property="og:description" content="Belmont Stakes Results - The results for the {%BELMONT-PURSE%} race running on {%BELMONT-DATE%} at Belmont Park! Get up to a {%BONUS-WELCOME%} welcome bonus, free bets and more. Place your bets now."/>
</BS_Switch_Early>

<BS_Switch_Main>
<title>Belmont Stakes Results | Bet on the Belmont Stakes Now!</title>
<meta name="description" content="Belmont Stakes Results - The results for the {%BELMONT-PURSE%} race running on {%BELMONT-DATE%} at Belmont Park!  Get up to a {%BONUS-WELCOME%} welcome bonus, free bets and more. Place your bets now." />
<meta property="og:description" content="Belmont Stakes Results - The results for the {%BELMONT-PURSE%} race running on {%BELMONT-DATE%} at Belmont Park! Get up to a {%BONUS-WELCOME%} welcome bonus, free bets and more. Place your bets now."/>
</BS_Switch_Main>

<BS_Switch_Race_Day>
<title>Belmont Stakes Results | Bet on the Belmont Stakes Today!</title>
<meta name="description" content="Belmont Stakes Results - The results for the {%BELMONT-PURSE%} race running on {%BELMONT-DATE%} at Belmont Park! Get up to a {%BONUS-WELCOME%} welcome bonus, free bets and more. Place your bets now." />
<meta property="og:title" content="Belmont Stakes Results | Bet on the Belmont Stakes Today!" />

<meta property="og:description" content="Belmont Stakes Results - Bet now on today's {%BELMONT-PURSE%} race and get up to a {%BONUS-WELCOME%} welcome bonus, free bets and more."/>
</BS_Switch_Race_Day>



</switch_variables>



<variables>
<!-- 	   <hero>/img/belmontstakes/belmont-stakes-betting-hero.jpg</hero> -->
	   <hero_lg>/img/belmontstakes/bet-belmont-stakes-odds.jpg</hero_lg>
	   <hero_md>/img/belmontstakes/belmont-live-odds-betting.jpg</hero_md>
	   <hero_sm>/img/belmontstakes/bet-belmont-odds.jpg</hero_sm>
	   <hero_alt>Belmont Stakes Results</hero_alt>
	   <h1>Belmont Stakes Results</h1>

<!-- 	   <h2>For the {%BELMONT-PURSE%} Grade 1 Stakes Race</h2> -->
	   <h2>For the {%BELMONT-PURSE%} Grade 1 Stakes Race</h2>
	   <h2_early>Place Your Bets on these Great Future Odds</h2_early>
	   <h2_main>Get up to {%BONUS-WELCOME%} New Member Bonus</h2_main>
	   <h2_race_day>Get up to {%BONUS-WELCOME%} Signup Bonus and a Free Bet!</h2_race_day>
	   
	   
<!--
	   <form_cta>Bet the Belmont Stakes!</form_cta>
	   <form_cta2>Get exclusive odds and more.</form_cta2>
-->
	   <button_cta>Bet Now on Belmont Stakes</button_cta>
	   <signup_cta>Sign Up Now</signup_cta>
	   <ref>belmont-stakes-results</ref>
	   <description>Belmont Stakes Results -  a Grade 1, {%BELMONT-PURSE%} stakes race for 3 year-old thoroughbreds on {%BELMONT-DATE%} at Belmont Park.</description>
	   <disclaimer>/home/ah/usracing.com/smarty/templates/inc/disclaimer-bs.tpl</disclaimer>
</variables>

</pagevariables>




	



