[
    {
        "juvenile-turf-sprint" : true,
        "juvenile-turf": true,
        "juvenile-fillies": true,
        "juvenile-fillies-turf": true,
        "juvenile": true,
        "filly-mare-sprint": true,
        "turf-sprint": true,
        "dirt-mile": true,
        "filly-mare-turf": true,
        "sprint": true,
        "mile": true,
        "distaff": true,
        "turf": true,
        "classic": true
    }
]