[
    {
        "juvenile-turf-sprint" : {
            "year": 2019,
            "month": 10,
            "day": 1,
            "hour": 16,
            "minutes": 12
        },
        "juvenile-turf": {
            "year": 2019,
            "month": 10,
            "day": 1,
            "hour": 16,
            "minutes": 52
        },
        "juvenile-fillies": {
            "year": 2019,
            "month": 10,
            "day": 1,
            "hour": 17,
            "minutes": 32
        },
        "juvenile-fillies-turf": {
            "year": 2019,
            "month": 10,
            "day": 1,
            "hour": 18,
            "minutes": 12
        },
        "juvenile": {
            "year": 2019,
            "month": 10,
            "day": 1,
            "hour": 18,
            "minutes": 57
        },
        "filly-mare-sprint": {
            "year": 2019,
            "month": 10,
            "day": 1,
            "hour": 14,
            "minutes": 55
        },
        "turf-sprint": {
            "year": 2019,
            "month": 10,
            "day": 2,
            "hour": 15,
            "minutes": 33
        },
        "dirt-mile": {
            "year": 2019,
            "month": 10,
            "day": 2,
            "hour": 16,
            "minutes": 10
        },
        "filly-mare-turf": {
            "year": 2019,
            "month": 10,
            "day": 2,
            "hour": 16,
            "minutes": 54
        },
        "sprint": {
            "year": 2019,
            "month": 10,
            "day": 2,
            "hour": 17,
            "minutes": 36
        },
        "mile": {
            "year": 2019,
            "month": 10,
            "day": 2,
            "hour": 18,
            "minutes": 20
        },
        "distaff": {
            "year": 2019,
            "month": 10,
            "day": 2,
            "hour": 19,
            "minutes": 0
        },
        "turf": {
            "year": 2019,
            "month": 10,
            "day": 2,
            "hour": 19,
            "minutes": 40
        },
        "classic": {
            "year": 2019,
            "month": 10,
            "day": 2,
            "hour": 20,
            "minutes": 44
        }
    }
]