<?xml version="1.0" encoding="ISO-8859-1"?>
<pagevariables>
<meta http-equiv="Content-Type" content="text/html; charset=utf-8" />
<title>Breeders' Cup Results: Turf | Breeders' Cup Betting</title>
<meta name="description" content="Official {%BC-YEARLAST%} Breeders' Cup Turf results. BC Turf winners, horses, jockeys and results of  the Thoroughbred World Championship at Santa Anita
" />
<meta name="keywords" content="Breeders Cup Turf, Breeders Cup Turf results, Breeders Cup Turf winners, Breeders Cup Santa Anita, BC Turf {%BC-YEARLAST%}, {%BC-YEARLAST%} Breeders Cup, Breeders Cup {%BC-YEARLAST%}, Online Horse Betting, Bet on Horses, Thorougbred Betting" />
<meta property="og:image" content="/img/breeders/breeders-cup-turf-og.jpg" />
<meta property="og:title" content="Breeders' Cup Results: Turf | Breeders' Cup Betting"  />
<meta property="og:description" content="Breeders' Cup Turf Results with video replay and commentary."  />

<switch_variables>

	<BC_Switch_Early>
		<title>Breeders' Cup Results: Turf | Breeders' Cup Betting</title>
		<meta name="description" content="Official Breeders' Cup Turf results. BC Turf winners, horses, jockeys and results of  the Thoroughbred World Championship at Santa Anita" />
		<meta name="keywords" content="Breeders Cup Turf, Breeders Cup Turf results, Breeders Cup Turf winners, Breeders Cup Santa Anita, BC Turf {%BC-YEARLAST%}, {%BC-YEARLAST%} Breeders Cup, Breeders Cup {%BC-YEARLAST%}, Online Horse Betting, Bet on Horses, Thorougbred Betting" />
	</BC_Switch_Early>	


	<BC_Switch_Main>
		<title>Breeders' Cup Results: Turf | Breeders' Cup Betting</title>
		<meta name="description" content="Official Breeders' Cup Turf results. BC Turf winners, horses, jockeys and results of  the Thoroughbred World Championship at Santa Anita" />
		<meta name="keywords" content="Breeders Cup Turf, Breeders Cup Turf results, Breeders Cup Turf winners, Breeders Cup Santa Anita, BC Turf {%BC-YEARLAST%}, {%BC-YEARLAST%} Breeders Cup, Breeders Cup {%BC-YEARLAST%}, Online Horse Betting, Bet on Horses, Thorougbred Betting" />
	</BC_Switch_Main>

	<BC_Switch_Race_Day>
		<title>Breeders' Cup Results: Turf | Breeders' Cup Betting</title>
		<meta name="description" content="Official Breeders' Cup Turf results. BC Turf winners, horses, jockeys and results of  the Thoroughbred World Championship at Santa Anita" />
		<meta name="keywords" content="Breeders Cup Turf, Breeders Cup Turf results, Breeders Cup Turf winners, Breeders Cup Santa Anita, BC Turf {%BC-YEARLAST%}, {%BC-YEARLAST%} Breeders Cup, Breeders Cup {%BC-YEARLAST%}, Online Horse Betting, Bet on Horses, Thorougbred Betting" />
	</BC_Switch_Race_Day>  

</switch_variables>

<sidebars></sidebars>
<classes>
page page-breeders-cup-challenge section-breeders-cup
</classes>
<variables>
	<hero_lg>/img/racetracks/oaklawn-park/oaklawn-park.jpg</hero_lg>
	<hero_md>/img/racetracks/oaklawn-park/oaklawn-anywhere-handicapping.jpg</hero_md>
	<hero_sm>/img/racetracks/oaklawn-park/oaklawn-park-live-racing.jpg</hero_sm>    
	<hero_alt>Breeders' Cup Turf Results</hero_alt>
	<h1>Breeders' Cup  </h1>
	<h1b>Turf Results</h1b>
	<h2>The Most Breeders' Cup Bets Anywhere</h2>
	<h2_early>Place Your Bets on these Great Future Odds</h2_early>
	<h2_main>Get up to a {%BONUS-WELCOME%} New Member Bonus</h2_main>
	<h2_race_day>Get up to {%BONUS-WELCOME%} Signup Bonus and a Free Bet!</h2_race_day>	   
	<form_cta>Get My Bonus Now</form_cta>
	<button_cta>Bet Now</button_cta>
	<signup_cta>Sign Up Now</signup_cta>
	<eventname>Breeders' Cup Turf</eventname>		   
	<disclaimer>/home/ah/usracing.com/smarty/templates/inc/disclaimer-bc.tpl</disclaimer>
	<ref>breeders-cup-turf-results</ref>
</variables>
</pagevariables>
